<?xml version="1.0" encoding="UTF-8"?>
<svg width="473px" height="45px" viewBox="0 0 473 45" version="1.1" xmlns="http://www.w3.org/2000/svg" xmlns:xlink="http://www.w3.org/1999/xlink">
    <g stroke="none" stroke-width="1" fill="none" fill-rule="evenodd">
        <path d="M2.63579592,42.1377382 L2.63579592,2.63809758 L463.053577,2.63809758 L463.053577,40.0590938 L458.318906,35.2698593 C457.807178,34.7498042 456.971092,34.7482283 456.45464,35.2588278 C455.938187,35.7725792 455.931889,36.6062433 456.445192,37.1247224 L463.396829,44.1564975 C463.645607,44.4070695 463.932175,44.5221119 464.333686,44.5489027 C464.680086,44.5489027 465.012316,44.4117972 465.261095,44.1675289 L472.289884,37.2050946 C472.806337,36.6929191 472.814209,35.8576791 472.300906,35.3407759 C471.789178,34.8207208 470.953092,34.817569 470.43664,35.3297444 L465.689373,40.0323031 L465.689373,1.31904879 C465.689373,0.589395756 465.100491,0 464.371475,0 L1.31789796,0 C0.588881527,0 0,0.589395756 0,1.31904879 L0,42.1377382 C0,42.8673912 0.588881527,43.456787 1.31789796,43.456787 C2.0469144,43.456787 2.63579592,42.8673912 2.63579592,42.1377382 Z" fill="#ED7AAA"></path>
    </g>
</svg>