<svg xmlns="http://www.w3.org/2000/svg" width="30" height="30" viewBox="0 0 30 30">
    <g fill="none" fill-rule="nonzero">
        <path fill="#FE7D71" d="M15 0C6.73 0 0 6.73 0 15s6.73 15 15 15 15-6.73 15-15S23.27 0 15 0zm5.5 20.5a.554.554 0 0 1-.786 0l-4.772-4.772-4.853 4.853a.554.554 0 0 1-.785 0 .555.555 0 0 1 0-.786l4.853-4.853L9.5 10.287a.555.555 0 1 1 .786-.785l4.656 4.656 4.576-4.575a.555.555 0 1 1 .785.785l-4.575 4.575 4.772 4.772a.555.555 0 0 1 0 .786z"/>
        <path fill="#D8F768" d="M15.728 14.943l4.575-4.576a.555.555 0 1 0-.785-.785l-4.576 4.575-4.656-4.656a.555.555 0 1 0-.786.785l4.657 4.657-4.853 4.852a.555.555 0 1 0 .785.786l4.853-4.853 4.772 4.772a.554.554 0 0 0 .786 0 .555.555 0 0 0 0-.786l-4.772-4.771z"/>
    </g>
</svg>
