<svg xmlns="http://www.w3.org/2000/svg" width="120" height="12" viewBox="0 0 120 12">
    <g fill="#ed5175" fill-rule="evenodd" opacity=".32">
        <g transform="matrix(-1 0 0 1 120 0)">
            <circle cx="6" cy="6" r="6" opacity=".2"/>
            <circle cx="24" cy="6" r="6" opacity=".4"/>
            <circle cx="42" cy="6" r="6" opacity=".6"/>
            <circle cx="60" cy="6" r="6"/>
        </g>
        <g>
            <circle cx="6" cy="6" r="6" opacity=".2"/>
            <circle cx="24" cy="6" r="6" opacity=".4"/>
            <circle cx="42" cy="6" r="6" opacity=".6"/>
        </g>
    </g>
</svg>
