<svg xmlns="http://www.w3.org/2000/svg" width="90" height="90" viewBox="0 0 90 90">
    <g fill="none" fill-rule="nonzero">
        <g fill="#E56EA0" fill-opacity=".194">
            <path d="M8.036 3.214H6.429V1.607a1.606 1.606 0 1 0-3.215 0v1.607H1.607a1.606 1.606 0 1 0 0 3.215h1.607v1.607a1.606 1.606 0 1 0 3.215 0V6.429h1.607a1.606 1.606 0 1 0 0-3.215zM24.107 3.214H22.5V1.607a1.606 1.606 0 1 0-3.214 0v1.607h-1.607a1.606 1.606 0 1 0 0 3.215h1.607v1.607a1.606 1.606 0 1 0 3.214 0V6.429h1.607a1.606 1.606 0 1 0 0-3.215zM40.179 3.214H38.57V1.607a1.606 1.606 0 1 0-3.214 0v1.607H33.75a1.606 1.606 0 1 0 0 3.215h1.607v1.607a1.606 1.606 0 1 0 3.214 0V6.429h1.608a1.606 1.606 0 1 0 0-3.215zM56.25 3.214h-1.607V1.607a1.606 1.606 0 1 0-3.214 0v1.607H49.82a1.606 1.606 0 1 0 0 3.215h1.608v1.607a1.606 1.606 0 1 0 3.214 0V6.429h1.607a1.606 1.606 0 1 0 0-3.215zM72.321 3.214h-1.607V1.607a1.606 1.606 0 1 0-3.214 0v1.607h-1.607a1.606 1.606 0 1 0 0 3.215H67.5v1.607a1.606 1.606 0 1 0 3.214 0V6.429h1.607a1.606 1.606 0 1 0 0-3.215zM81.964 6.429h1.607v1.607a1.606 1.606 0 1 0 3.215 0V6.429h1.607a1.606 1.606 0 1 0 0-3.215h-1.607V1.607a1.606 1.606 0 1 0-3.215 0v1.607h-1.607a1.606 1.606 0 1 0 0 3.215zM8.036 19.286H6.429v-1.607a1.606 1.606 0 1 0-3.215 0v1.607H1.607a1.606 1.606 0 1 0 0 3.214h1.607v1.607a1.606 1.606 0 1 0 3.215 0V22.5h1.607a1.606 1.606 0 1 0 0-3.214zM24.107 19.286H22.5v-1.607a1.606 1.606 0 1 0-3.214 0v1.607h-1.607a1.606 1.606 0 1 0 0 3.214h1.607v1.607a1.606 1.606 0 1 0 3.214 0V22.5h1.607a1.606 1.606 0 1 0 0-3.214zM40.179 19.286H38.57v-1.607a1.606 1.606 0 1 0-3.214 0v1.607H33.75a1.606 1.606 0 1 0 0 3.214h1.607v1.607a1.606 1.606 0 1 0 3.214 0V22.5h1.608a1.606 1.606 0 1 0 0-3.214zM56.25 19.286h-1.607v-1.607a1.606 1.606 0 1 0-3.214 0v1.607H49.82a1.606 1.606 0 1 0 0 3.214h1.608v1.607a1.606 1.606 0 1 0 3.214 0V22.5h1.607a1.606 1.606 0 1 0 0-3.214zM72.321 19.286h-1.607v-1.607a1.606 1.606 0 1 0-3.214 0v1.607h-1.607a1.606 1.606 0 1 0 0 3.214H67.5v1.607a1.606 1.606 0 1 0 3.214 0V22.5h1.607a1.606 1.606 0 1 0 0-3.214zM88.393 19.286h-1.607v-1.607a1.606 1.606 0 1 0-3.215 0v1.607h-1.607a1.606 1.606 0 1 0 0 3.214h1.607v1.607a1.606 1.606 0 1 0 3.215 0V22.5h1.607a1.606 1.606 0 1 0 0-3.214zM8.036 35.357H6.429V33.75a1.606 1.606 0 1 0-3.215 0v1.607H1.607a1.606 1.606 0 1 0 0 3.214h1.607v1.608a1.606 1.606 0 1 0 3.215 0V38.57h1.607a1.606 1.606 0 1 0 0-3.214zM24.107 35.357H22.5V33.75a1.606 1.606 0 1 0-3.214 0v1.607h-1.607a1.606 1.606 0 1 0 0 3.214h1.607v1.608a1.606 1.606 0 1 0 3.214 0V38.57h1.607a1.606 1.606 0 1 0 0-3.214zM40.179 35.357H38.57V33.75a1.606 1.606 0 1 0-3.214 0v1.607H33.75a1.606 1.606 0 1 0 0 3.214h1.607v1.608a1.606 1.606 0 1 0 3.214 0V38.57h1.608a1.606 1.606 0 1 0 0-3.214zM56.25 35.357h-1.607V33.75a1.606 1.606 0 1 0-3.214 0v1.607H49.82a1.606 1.606 0 1 0 0 3.214h1.608v1.608a1.606 1.606 0 1 0 3.214 0V38.57h1.607a1.606 1.606 0 1 0 0-3.214zM72.321 35.357h-1.607V33.75a1.606 1.606 0 1 0-3.214 0v1.607h-1.607a1.606 1.606 0 1 0 0 3.214H67.5v1.608a1.606 1.606 0 1 0 3.214 0V38.57h1.607a1.606 1.606 0 1 0 0-3.214zM88.393 35.357h-1.607V33.75a1.606 1.606 0 1 0-3.215 0v1.607h-1.607a1.606 1.606 0 1 0 0 3.214h1.607v1.608a1.606 1.606 0 1 0 3.215 0V38.57h1.607a1.606 1.606 0 1 0 0-3.214zM8.036 51.429H6.429V49.82a1.606 1.606 0 1 0-3.215 0v1.608H1.607a1.606 1.606 0 1 0 0 3.214h1.607v1.607a1.606 1.606 0 1 0 3.215 0v-1.607h1.607a1.606 1.606 0 1 0 0-3.214zM24.107 51.429H22.5V49.82a1.606 1.606 0 1 0-3.214 0v1.608h-1.607a1.606 1.606 0 1 0 0 3.214h1.607v1.607a1.606 1.606 0 1 0 3.214 0v-1.607h1.607a1.606 1.606 0 1 0 0-3.214zM40.179 51.429H38.57V49.82a1.606 1.606 0 1 0-3.214 0v1.608H33.75a1.606 1.606 0 1 0 0 3.214h1.607v1.607a1.606 1.606 0 1 0 3.214 0v-1.607h1.608a1.606 1.606 0 1 0 0-3.214zM56.25 51.429h-1.607V49.82a1.606 1.606 0 1 0-3.214 0v1.608H49.82a1.606 1.606 0 1 0 0 3.214h1.608v1.607a1.606 1.606 0 1 0 3.214 0v-1.607h1.607a1.606 1.606 0 1 0 0-3.214zM72.321 51.429h-1.607V49.82a1.606 1.606 0 1 0-3.214 0v1.608h-1.607a1.606 1.606 0 1 0 0 3.214H67.5v1.607a1.606 1.606 0 1 0 3.214 0v-1.607h1.607a1.606 1.606 0 1 0 0-3.214zM88.393 51.429h-1.607V49.82a1.606 1.606 0 1 0-3.215 0v1.608h-1.607a1.606 1.606 0 1 0 0 3.214h1.607v1.607a1.606 1.606 0 1 0 3.215 0v-1.607h1.607a1.606 1.606 0 1 0 0-3.214zM8.036 67.5H6.429v-1.607a1.606 1.606 0 1 0-3.215 0V67.5H1.607a1.606 1.606 0 1 0 0 3.214h1.607v1.607a1.606 1.606 0 1 0 3.215 0v-1.607h1.607a1.606 1.606 0 1 0 0-3.214zM24.107 67.5H22.5v-1.607a1.606 1.606 0 1 0-3.214 0V67.5h-1.607a1.606 1.606 0 1 0 0 3.214h1.607v1.607a1.606 1.606 0 1 0 3.214 0v-1.607h1.607a1.606 1.606 0 1 0 0-3.214zM40.179 67.5H38.57v-1.607a1.606 1.606 0 1 0-3.214 0V67.5H33.75a1.606 1.606 0 1 0 0 3.214h1.607v1.607a1.606 1.606 0 1 0 3.214 0v-1.607h1.608a1.606 1.606 0 1 0 0-3.214zM56.25 67.5h-1.607v-1.607a1.606 1.606 0 1 0-3.214 0V67.5H49.82a1.606 1.606 0 1 0 0 3.214h1.608v1.607a1.606 1.606 0 1 0 3.214 0v-1.607h1.607a1.606 1.606 0 1 0 0-3.214zM72.321 67.5h-1.607v-1.607a1.606 1.606 0 1 0-3.214 0V67.5h-1.607a1.606 1.606 0 1 0 0 3.214H67.5v1.607a1.606 1.606 0 1 0 3.214 0v-1.607h1.607a1.606 1.606 0 1 0 0-3.214zM88.393 67.5h-1.607v-1.607a1.606 1.606 0 1 0-3.215 0V67.5h-1.607a1.606 1.606 0 1 0 0 3.214h1.607v1.607a1.606 1.606 0 1 0 3.215 0v-1.607h1.607a1.606 1.606 0 1 0 0-3.214zM8.036 83.571H6.429v-1.607a1.606 1.606 0 1 0-3.215 0v1.607H1.607a1.606 1.606 0 1 0 0 3.215h1.607v1.607a1.606 1.606 0 1 0 3.215 0v-1.607h1.607a1.606 1.606 0 1 0 0-3.215zM24.107 83.571H22.5v-1.607a1.606 1.606 0 1 0-3.214 0v1.607h-1.607a1.606 1.606 0 1 0 0 3.215h1.607v1.607a1.606 1.606 0 1 0 3.214 0v-1.607h1.607a1.606 1.606 0 1 0 0-3.215zM40.179 83.571H38.57v-1.607a1.606 1.606 0 1 0-3.214 0v1.607H33.75a1.606 1.606 0 1 0 0 3.215h1.607v1.607a1.606 1.606 0 1 0 3.214 0v-1.607h1.608a1.606 1.606 0 1 0 0-3.215zM56.25 83.571h-1.607v-1.607a1.606 1.606 0 1 0-3.214 0v1.607H49.82a1.606 1.606 0 1 0 0 3.215h1.608v1.607a1.606 1.606 0 1 0 3.214 0v-1.607h1.607a1.606 1.606 0 1 0 0-3.215zM72.321 83.571h-1.607v-1.607a1.606 1.606 0 1 0-3.214 0v1.607h-1.607a1.606 1.606 0 1 0 0 3.215H67.5v1.607a1.606 1.606 0 1 0 3.214 0v-1.607h1.607a1.606 1.606 0 1 0 0-3.215zM88.393 83.571h-1.607v-1.607a1.606 1.606 0 1 0-3.215 0v1.607h-1.607a1.606 1.606 0 1 0 0 3.215h1.607v1.607a1.606 1.606 0 1 0 3.215 0v-1.607h1.607a1.606 1.606 0 1 0 0-3.215z"/>
        </g>
        <path fill="#ED5175" d="M78.417 20.38L8.778 39.504l26.308 8.413zM33.87 68.024l8.7-4.916-5.768-8.417zM37.83 49.98l-.081.405 17.263 25.188 29.05-54.972L37.83 49.98z"/>
        <path fill="#643458" d="M89.903 16.03a1.563 1.563 0 0 0-.036-.332c-.017-.088-.03-.171-.062-.255-.011-.032-.01-.065-.023-.097-.034-.076-.092-.13-.135-.198-.046-.073-.086-.147-.144-.212a1.57 1.57 0 0 0-.323-.264c-.043-.028-.07-.07-.117-.095-.01-.005-.02-.004-.03-.01a1.602 1.602 0 0 0-.576-.17c-.045-.004-.089.012-.134.012a1.557 1.557 0 0 0-.436.04l-.046.012-.004.001L2.71 37.837a1.606 1.606 0 0 0-.064 3.08l31.653 10.12.012.019-4.352 19.791a1.604 1.604 0 0 0 1.57 1.953c.271 0 .544-.07.79-.207l12.077-6.823 9.468 13.815a1.61 1.61 0 0 0 1.326.698l.093-.003a1.603 1.603 0 0 0 1.327-.854l33.124-62.679c.021-.04.02-.083.037-.124.05-.115.083-.23.104-.352.014-.082.028-.159.029-.24zm-11.486 4.35L35.086 47.917 8.778 39.503l69.64-19.122zM33.871 68.025l2.931-13.333 5.768 8.417-8.7 4.916zm21.14 7.549L37.75 50.385l.08-.365c.003-.013-.002-.027 0-.04L84.064 20.6 55.012 75.573z"/>
    </g>
</svg>
