<?xml version="1.0" encoding="UTF-8"?>
<svg width="496px" height="367px" viewBox="0 0 496 367" version="1.1" xmlns="http://www.w3.org/2000/svg" xmlns:xlink="http://www.w3.org/1999/xlink">
    <!-- Generator: Sketch 49.3 (51167) - http://www.bohemiancoding.com/sketch -->
    <title>img-1</title>
    <desc>Created with Sketch.</desc>
    <defs></defs>
    <g id="ICO" stroke="none" stroke-width="1" fill="none" fill-rule="evenodd">
        <g id="img-1" transform="translate(2.000000, 0.000000)">
            <g id="Group-93" transform="translate(0.218182, 0.684770)">
                <g id="Group-30" transform="translate(16.000000, 0.000000)" opacity="0.400000006">
                    <path d="M367.098072,183.116883 C367.098072,81.9814286 285.04229,0 183.825345,0 C82.6083993,0 0.552617521,81.9814286 0.552617521,183.116883 C0.552617521,210.062532 6.42192661,235.616494 16.8822175,258.652597 L350.768472,258.652597 C361.224181,235.616494 367.098072,210.062532 367.098072,183.116883" id="Fill-5" fill="#E8F4FA"></path>
                    <path d="M25.2577812,274.675325 C22.2429448,269.470227 19.3838902,264.164416 16.8822175,258.652597 L350.768472,258.652597 C348.266799,264.164416 345.407745,269.470227 342.388327,274.675325 C310.69589,329.363182 251.62709,366.233766 183.825345,366.233766 C116.023599,366.233766 56.9547993,329.363182 25.2577812,274.675325 Z" id="Combined-Shape" fill="#FFFFFF"></path>
                </g>
                <path d="M21.1344357,258.652597 L378.516254,258.652597" id="Stroke-7" stroke="#5E3E5A" stroke-width="5" stroke-linecap="round" stroke-linejoin="round"></path>
                <path d="M172.032494,342.315955 C172.032494,346.674136 141.366385,350.21287 103.534312,350.21287 C65.7022393,350.21287 35.0361302,346.674136 35.0361302,342.315955 C35.0361302,337.953195 65.7022393,334.414461 103.534312,334.414461 C141.366385,334.414461 172.032494,337.953195 172.032494,342.315955" id="Fill-13" fill-opacity="0.15" fill="#020202"></path>
                <path d="M66.6506757,339.682734 L40.3052212,339.682734 C34.4863121,339.682734 29.7670393,334.967474 29.7670393,329.153513 L29.7670393,289.270656 C29.7670393,283.456695 34.4863121,278.741435 40.3052212,279.135136 L66.6506757,279.135136 C72.4741666,278.741435 77.1888575,283.456695 77.1888575,289.270656 L77.1888575,329.153513 C77.1888575,334.967474 72.4741666,339.682734 66.6506757,339.682734" id="Fill-15" fill="#F7C468"></path>
                <path d="M66.6506757,279.136968 L40.3052212,279.136968 C34.4863121,278.743266 29.7670393,283.453948 29.7670393,289.272487 L29.7670393,305.460019 C29.7670393,299.430896 34.665003,291.904792 40.7038393,292.298494 L66.2566393,292.298494 C72.2908939,291.904792 77.1888575,299.430896 77.1888575,305.460019 L77.1888575,289.272487 C77.1888575,283.453948 72.4741666,278.743266 66.6506757,279.136968" id="Fill-17" fill="#C99F54"></path>
                <path d="M66.6506757,339.682734 L40.3052212,339.682734 C34.4863121,339.682734 29.7670393,334.967474 29.7670393,329.153513 L29.7670393,289.270656 C29.7670393,283.456695 34.4863121,278.741435 40.3052212,279.135136 L66.6506757,279.135136 C72.4741666,278.741435 77.1888575,283.456695 77.1888575,289.270656 L77.1888575,329.153513 C77.1888575,334.967474 72.4741666,339.682734 66.6506757,339.682734 Z" id="Stroke-19" stroke="#5E3E5A" stroke-width="5" stroke-linecap="round" stroke-linejoin="round"></path>
                <path d="M42.940683,297.167114 L42.940683,321.25614" id="Stroke-21" stroke="#5E3E5A" stroke-width="5" stroke-linecap="round" stroke-linejoin="round"></path>
                <path d="M53.4779484,297.167114 L53.4779484,321.25614" id="Stroke-23" stroke="#5E3E5A" stroke-width="5" stroke-linecap="round" stroke-linejoin="round"></path>
                <path d="M64.0175048,297.167114 L64.0175048,321.25614" id="Stroke-25" stroke="#5E3E5A" stroke-width="5" stroke-linecap="round" stroke-linejoin="round"></path>
                <path d="M66.6506757,279.136968 L66.6506757,255.446221 C66.6506757,252.53924 64.2910393,250.186188 61.3815848,250.186188 L45.5743121,250.186188 C42.6648575,250.186188 40.3052212,252.53924 40.3052212,255.446221 L40.3052212,279.136968" id="Stroke-27" stroke="#5E3E5A" stroke-width="5" stroke-linecap="round" stroke-linejoin="round"></path>
                <path d="M135.149774,323.887987 L137.784319,323.887987 C140.666283,323.887987 143.360392,324.661656 145.687956,326.002987 L145.687956,239.654221 L77.1897739,239.654221 L77.1897739,326.002987 C79.5127557,324.661656 82.2160284,323.887987 85.0934102,323.887987 L87.7279557,323.887987 C93.4048284,323.887987 98.3761012,326.872792 101.166428,331.363734 L102.980828,274.162597 C103.127447,269.602987 106.870792,265.977273 111.438865,265.977273 C116.006938,265.977273 119.750283,269.602987 119.896901,274.162597 L121.711301,331.363734 C124.501628,326.872792 129.477483,323.887987 135.149774,323.887987" id="Fill-29" fill="#DEBB7E"></path>
                <path d="M102.82413,279.136968 L102.984494,274.160766 C103.12653,269.601156 106.869876,265.975442 111.437948,265.975442 C116.006021,265.975442 119.749367,269.601156 119.895985,274.160766 L120.051767,279.136968 L145.687039,279.136968 L145.687039,239.65239 L77.1888575,239.65239 L77.1888575,279.136968 L102.82413,279.136968 Z" id="Fill-31" fill="#B89558"></path>
                <path d="M135.149774,323.887987 L137.784319,323.887987 C140.666283,323.887987 143.360392,324.661656 145.687956,326.002987 L145.687956,239.654221 L77.1897739,239.654221 L77.1897739,326.002987 C79.5127557,324.661656 82.2160284,323.887987 85.0934102,323.887987 L87.7279557,323.887987 C93.4048284,323.887987 98.3761012,326.872792 101.166428,331.363734 L102.980828,274.162597 C103.127447,269.602987 106.870792,265.977273 111.438865,265.977273 C116.006938,265.977273 119.750283,269.602987 119.896901,274.162597 L121.711301,331.363734 C124.501628,326.872792 129.477483,323.887987 135.149774,323.887987 Z" id="Stroke-33" stroke="#5E3E5A" stroke-width="5" stroke-linecap="round" stroke-linejoin="round"></path>
                <path d="M154.908865,271.241883 C149.818465,271.241883 145.685665,267.117175 145.685665,262.026526 L145.685665,255.448052 L164.132065,255.448052 L164.132065,262.026526 C164.132065,267.117175 159.999265,271.241883 154.908865,271.241883" id="Fill-35" fill="#FFDB8F"></path>
                <path d="M154.908865,271.241883 C149.818465,271.241883 145.685665,267.117175 145.685665,262.026526 L145.685665,255.448052 L164.132065,255.448052 L164.132065,262.026526 C164.132065,267.117175 159.999265,271.241883 154.908865,271.241883 Z" id="Stroke-37" stroke="#5E3E5A" stroke-width="5" stroke-linecap="round" stroke-linejoin="round"></path>
                <path d="M111.439781,242.28561 L116.181963,248.603143 C118.170472,251.25376 121.295272,252.814831 124.612508,252.814831 L124.612508,206.380968 C124.612508,187.277299 128.314618,168.370481 135.434763,150.653922 C128.241308,146.973273 120.08109,144.894896 111.439781,144.894896 C102.79389,144.894896 94.6382539,146.973273 87.4402175,150.653922 C94.5649448,168.370481 98.2670539,187.277299 98.2670539,206.380968 L98.2670539,252.814831 C101.58429,252.814831 104.70909,251.25376 106.697599,248.603143 L111.439781,242.28561 Z" id="Fill-39" fill="#FFFFFF"></path>
                <path d="M111.439781,242.28561 L116.181963,248.603143 C118.170472,251.25376 121.295272,252.814831 124.612508,252.814831 L124.612508,206.380968 C124.612508,187.277299 128.314618,168.370481 135.434763,150.653922 C128.241308,146.973273 120.08109,144.894896 111.439781,144.894896 C102.79389,144.894896 94.6382539,146.973273 87.4402175,150.653922 C94.5649448,168.370481 98.2670539,187.277299 98.2670539,206.380968 L98.2670539,252.814831 C101.58429,252.814831 104.70909,251.25376 106.697599,248.603143 L111.439781,242.28561 Z" id="Stroke-41" stroke="#5E3E5A" stroke-width="5" stroke-linecap="round" stroke-linejoin="round"></path>
                <path d="M111.439781,144.893065 C105.455927,144.893065 99.7057448,145.891052 94.3450175,147.726799 L111.439781,163.314623 L128.529963,147.726799 C123.173818,145.891052 117.423636,144.893065 111.439781,144.893065" id="Fill-43" fill="#FFDB8F"></path>
                <path d="M111.439781,144.893065 C105.455927,144.893065 99.7057448,145.891052 94.3450175,147.726799 L111.439781,163.314623 L128.529963,147.726799 C123.173818,145.891052 117.423636,144.893065 111.439781,144.893065 Z" id="Stroke-45" stroke="#5E3E5A" stroke-width="5" stroke-linecap="round" stroke-linejoin="round"></path>
                <path d="M94.3450175,147.727256 C90.5146175,149.036542 86.8858175,150.780731 83.5090175,152.891153 L92.8192721,168.991705 C94.3450175,171.619432 97.7767993,172.420568 100.305963,170.731315 L111.439781,163.315081 L94.3450175,147.727256 Z" id="Fill-47" fill="#E0E0E0"></path>
                <path d="M94.3450175,147.727256 C90.5146175,149.036542 86.8858175,150.780731 83.5090175,152.891153 L92.8192721,168.991705 C94.3450175,171.619432 97.7767993,172.420568 100.305963,170.731315 L111.439781,163.315081 L94.3450175,147.727256 Z" id="Stroke-49" stroke="#5E3E5A" stroke-width="5" stroke-linecap="round" stroke-linejoin="round"></path>
                <path d="M128.532254,147.727256 C132.362654,149.036542 135.991454,150.780731 139.368254,152.891153 L130.057999,168.991705 C128.532254,171.619432 125.100472,172.420568 122.571308,170.731315 L111.442072,163.315081 L128.532254,147.727256 Z" id="Fill-51" fill="#E0E0E0"></path>
                <path d="M128.532254,147.727256 C132.362654,149.036542 135.991454,150.780731 139.368254,152.891153 L130.057999,168.991705 C128.532254,171.619432 125.100472,172.420568 122.571308,170.731315 L111.442072,163.315081 L128.532254,147.727256 Z" id="Stroke-53" stroke="#5E3E5A" stroke-width="5" stroke-linecap="round" stroke-linejoin="round"></path>
                <path d="M111.439781,242.28561 L111.439781,163.316455" id="Stroke-55" stroke="#5E3E5A" stroke-width="5" stroke-linecap="round" stroke-linejoin="round"></path>
                <path d="M146.897556,339.682734 C150.819592,339.682734 153.522865,335.471045 151.625992,332.04676 C148.931883,327.185006 143.745265,323.888903 137.784319,323.888903 L135.149774,323.888903 C129.19341,323.888903 124.00221,327.185006 121.312683,332.04676 C119.411228,335.471045 122.114501,339.682734 126.036538,339.682734 L146.897556,339.682734 Z" id="Fill-57" fill="#FFFFFF"></path>
                <path d="M146.897556,339.682734 C150.819592,339.682734 153.522865,335.471045 151.625992,332.04676 C148.931883,327.185006 143.745265,323.888903 137.784319,323.888903 L135.149774,323.888903 C129.19341,323.888903 124.00221,327.185006 121.312683,332.04676 C119.411228,335.471045 122.114501,339.682734 126.036538,339.682734 L146.897556,339.682734 Z" id="Stroke-59" stroke="#5E3E5A" stroke-width="5" stroke-linecap="round" stroke-linejoin="round"></path>
                <path d="M96.8416502,339.682734 C100.759105,339.682734 103.466959,335.471045 101.570087,332.04676 C98.8713957,327.185006 93.6893593,323.888903 87.7284139,323.888903 L85.0938684,323.888903 C79.132923,323.888903 73.9463048,327.185006 71.2521957,332.04676 C69.355323,335.471045 72.0585957,339.682734 75.9806321,339.682734 L96.8416502,339.682734 Z" id="Fill-61" fill="#FFFFFF"></path>
                <path d="M96.8416502,339.682734 C100.759105,339.682734 103.466959,335.471045 101.570087,332.04676 C98.8713957,327.185006 93.6893593,323.888903 87.7284139,323.888903 L85.0938684,323.888903 C79.132923,323.888903 73.9463048,327.185006 71.2521957,332.04676 C69.355323,335.471045 72.0585957,339.682734 75.9806321,339.682734 L96.8416502,339.682734 Z" id="Stroke-63" stroke="#5E3E5A" stroke-width="5" stroke-linecap="round" stroke-linejoin="round"></path>
                <path d="M58.7488721,197.539169 C58.7488721,177.098747 70.4050175,159.37761 87.4402175,150.656669 C94.5649448,168.373227 98.2670539,187.280045 98.2670539,206.383714 L98.2670539,258.082188 C98.2670539,260.984591 95.9074175,263.346799 92.997963,263.346799 L77.1906902,263.346799 L77.1906902,205.35826 C77.1906902,221.879981 74.2720721,238.264364 68.6410175,253.792675 L50.4145448,246.289461 C55.8943993,232.189461 58.7488721,217.201344 58.7488721,202.053 L58.7488721,197.539169 Z" id="Fill-65" fill="#656769"></path>
                <path d="M93.4905084,169.030159 C91.8731266,162.795029 89.8571266,156.656036 87.4425084,150.65438 C70.4027266,159.379899 58.7465812,177.101036 58.7465812,197.541458 L58.7465812,199.171198 C64.0569084,185.295516 76.9684721,174.16201 93.4905084,169.030159" id="Fill-67" fill="#87898C"></path>
                <path d="M58.7488721,197.539169 C58.7488721,177.098747 70.4050175,159.37761 87.4402175,150.656669 C94.5649448,168.373227 98.2670539,187.280045 98.2670539,206.383714 L98.2670539,258.082188 C98.2670539,260.984591 95.9074175,263.346799 92.997963,263.346799 L77.1906902,263.346799 L77.1906902,205.35826 C77.1906902,221.879981 74.2720721,238.264364 68.6410175,253.792675 L50.4145448,246.289461 C55.8943993,232.189461 58.7488721,217.201344 58.7488721,202.053 L58.7488721,197.539169 Z" id="Stroke-69" stroke="#5E3E5A" stroke-width="5" stroke-linecap="round" stroke-linejoin="round"></path>
                <path d="M164.13069,255.447136 L164.13069,197.541 C164.13069,177.100578 152.474545,159.379442 135.434763,150.653922 C128.314618,168.370481 124.612508,187.277299 124.612508,206.380968 L124.612508,258.079442 C124.612508,260.986422 126.972145,263.34863 129.881599,263.34863 L145.688872,263.34863 L145.688872,255.447136 L164.13069,255.447136 Z" id="Fill-71" fill="#656769"></path>
                <path d="M129.389054,169.030159 C131.006436,162.795029 133.022436,156.656036 135.437054,150.65438 C152.472254,159.379899 164.132981,177.101036 164.132981,197.541458 L164.132981,199.171198 C158.818072,185.295516 145.91109,174.16201 129.389054,169.030159" id="Fill-73" fill="#87898C"></path>
                <path d="M164.13069,255.447136 L164.13069,197.541 C164.13069,177.100578 152.474545,159.379442 135.434763,150.653922 C128.314618,168.370481 124.612508,187.277299 124.612508,206.380968 L124.612508,258.079442 C124.612508,260.986422 126.972145,263.34863 129.881599,263.34863 L145.688872,263.34863 L145.688872,255.447136 L164.13069,255.447136 Z" id="Stroke-75" stroke="#5E3E5A" stroke-width="5" stroke-linecap="round" stroke-linejoin="round"></path>
                <path d="M51.8156648,263.364653 C47.0093375,260.590432 45.4377739,254.401081 48.3380648,249.672088 L50.4136284,246.293581 L68.6401012,253.792218 L65.3870102,259.629068 C62.7020648,264.440464 56.5899193,266.129718 51.8156648,263.364653" id="Fill-77" fill="#FFDB8F"></path>
                <path d="M51.8156648,263.364653 C47.0093375,260.590432 45.4377739,254.401081 48.3380648,249.672088 L50.4136284,246.293581 L68.6401012,253.792218 L65.3870102,259.629068 C62.7020648,264.440464 56.5899193,266.129718 51.8156648,263.364653 Z" id="Stroke-79" stroke="#5E3E5A" stroke-width="5" stroke-linecap="round" stroke-linejoin="round"></path>
                <path d="M77.1902321,205.434253 L77.1902321,189.640422" id="Stroke-81" stroke="#5E3E5A" stroke-width="5" stroke-linecap="round" stroke-linejoin="round"></path>
                <path d="M145.687039,255.447136 L145.687039,189.639506" id="Stroke-83" stroke="#5E3E5A" stroke-width="5" stroke-linecap="round" stroke-linejoin="round"></path>
                <path d="M153.188392,141.450468 C150.205628,135.490013 144.11181,131.731539 137.445265,131.731539 L85.4324648,131.731539 C78.7659193,131.731539 72.6721012,135.490013 69.6893375,141.450468 C66.326283,148.170857 67.7970466,156.113552 72.8920284,161.643682 C88.8734102,178.989429 94.8114466,197.873357 98.2661375,218.59761 L98.2661375,206.383714 C98.2661375,187.280045 94.5640284,168.373227 87.4393012,150.656669 C94.6373375,146.971442 102.792974,144.893065 111.438865,144.893065 C120.084756,144.893065 128.240392,146.971442 135.433847,150.656669 C128.313701,168.373227 124.611592,187.280045 124.611592,206.383714 L124.611592,218.59761 C128.070865,197.873357 134.004319,178.989429 149.985701,161.643682 C155.080683,156.113552 156.546865,148.170857 153.188392,141.450468" id="Fill-85" fill="#656769"></path>
                <path d="M153.188392,141.450468 C150.205628,135.490013 144.11181,131.731539 137.445265,131.731539 L85.4324648,131.731539 C78.7659193,131.731539 72.6721012,135.490013 69.6893375,141.450468 C66.326283,148.170857 67.7970466,156.113552 72.8920284,161.643682 C88.8734102,178.989429 94.8114466,197.873357 98.2661375,218.59761 L98.2661375,206.383714 C98.2661375,187.280045 94.5640284,168.373227 87.4393012,150.656669 C94.6373375,146.971442 102.792974,144.893065 111.438865,144.893065 C120.084756,144.893065 128.240392,146.971442 135.433847,150.656669 C128.313701,168.373227 124.611592,187.280045 124.611592,206.383714 L124.611592,218.59761 C128.070865,197.873357 134.004319,178.989429 149.985701,161.643682 C155.080683,156.113552 156.546865,148.170857 153.188392,141.450468 Z" id="Stroke-87" stroke="#5E3E5A" stroke-width="5" stroke-linecap="round" stroke-linejoin="round"></path>
                <path d="M87.4411339,150.655753 L85.095243,144.892149" id="Stroke-89" stroke="#5E3E5A" stroke-width="5" stroke-linecap="round" stroke-linejoin="round"></path>
                <path d="M135.436138,150.655753 L137.78661,144.892149" id="Stroke-91" stroke="#5E3E5A" stroke-width="5" stroke-linecap="round" stroke-linejoin="round"></path>
                <path d="M0.516253884,258.652597 L11.9707993,258.652597" id="Stroke-9" stroke="#5E3E5A" stroke-width="5" stroke-linecap="round" stroke-linejoin="round"></path>
                <g id="Group-54" transform="translate(248.000000, 108.000000)">
                    <path d="M118.023271,150.762476 L128.448194,150.762476" id="Stroke-11" stroke="#5E3E5A" stroke-width="5" stroke-linecap="round" stroke-linejoin="round"></path>
                    <polygon id="Fill-94" fill="#AE8D9B" points="30.23374 92.4325478 90.6982957 92.4325478 90.6982957 32.0194076 30.23374 32.0194076"></polygon>
                    <polygon id="Fill-96" fill="#B9688A" points="17.723832 150.762476 30.23374 150.762476 30.23374 32.0194076 17.723832 32.0194076"></polygon>
                    <polygon id="Fill-97" fill="#B9688A" points="90.6982957 150.762476 103.208204 150.762476 103.208204 32.0194076 90.6982957 32.0194076"></polygon>
                    <polygon id="Stroke-100" stroke="#5E3E5A" stroke-width="5" stroke-linecap="round" stroke-linejoin="round" points="17.723832 150.762476 30.23374 150.762476 30.23374 32.0194076 17.723832 32.0194076"></polygon>
                    <polygon id="Stroke-101" stroke="#5E3E5A" stroke-width="5" stroke-linecap="round" stroke-linejoin="round" points="90.6982957 150.762476 103.208204 150.762476 103.208204 32.0194076 90.6982957 32.0194076"></polygon>
                    <polygon id="Fill-102" fill="#B9688A" points="140.958936 150.762476 153.468844 150.762476 153.468844 32.0194076 140.958936 32.0194076"></polygon>
                    <polygon id="Stroke-103" stroke="#5E3E5A" stroke-width="5" stroke-linecap="round" stroke-linejoin="round" points="140.958936 150.762476 153.468844 150.762476 153.468844 32.0194076 140.958936 32.0194076"></polygon>
                    <path d="M209.69963,0.771231577 L32.1590149,0.771231577 C19.2196,0.771231577 7.39773684,10.6248231 0.975984036,26.2947417 C-0.137397783,29.0195827 1.92673705,32.0194076 4.87073541,32.0194076 L242.900926,32.0194076 C237.208918,13.0621808 224.148574,0.771231577 209.69963,0.771231577" id="Fill-104" fill="#FE7D71" opacity="0.5"></path>
                    <path d="M3.3082479,31.7181751 C10.0344085,18.9730858 20.6553204,11.1860403 32.1560959,11.1860403 L209.700881,11.1860403 C221.293396,11.1860403 231.989367,19.1022449 238.707188,32.0181576 L242.902177,32.0181576 C237.210169,13.0609309 224.149825,0.76998165 209.700881,0.76998165 L32.1560959,0.76998165 C19.216681,0.76998165 7.39481787,10.6277396 0.977235026,26.2976582 C0.0723516761,28.5058627 1.25662297,30.8932233 3.3082479,31.7181751" id="Fill-105" fill="#D4695F" opacity="0.5"></path>
                    <path d="M209.69963,0.771231577 L32.1590149,0.771231577 C19.2196,0.771231577 7.39773684,10.6248231 0.975984036,26.2947417 C-0.137397783,29.0195827 1.92673705,32.0194076 4.87073541,32.0194076 L242.900926,32.0194076 C237.208918,13.0621808 224.148574,0.771231577 209.69963,0.771231577 Z" id="Stroke-106" stroke="#5E3E5A" stroke-width="5" stroke-linecap="round" stroke-linejoin="round"></path>
                    <polygon id="Fill-107" fill="#90576F" points="103.208204 92.4325478 140.737928 92.4325478 140.737928 32.0194076 103.208204 32.0194076"></polygon>
                    <polygon id="Fill-108" fill="#AE8D9B" points="103.208204 92.4325478 140.737928 92.4325478 140.737928 52.8515249 103.208204 52.8515249"></polygon>
                    <polygon id="Stroke-109" stroke="#5E3E5A" stroke-width="5" stroke-linecap="round" stroke-linejoin="round" points="103.208204 92.4325478 140.737928 92.4325478 140.737928 32.0194076 103.208204 32.0194076"></polygon>
                    <polygon id="Fill-110" fill="#90576F" points="30.23374 52.8515249 90.6982957 52.8515249 90.6982957 32.0194076 30.23374 32.0194076"></polygon>
                    <polygon id="Stroke-111" stroke="#5E3E5A" stroke-width="5" stroke-linecap="round" stroke-linejoin="round" points="30.23374 92.4325478 90.6982957 92.4325478 90.6982957 32.0194076 30.23374 32.0194076"></polygon>
                    <polygon id="Fill-112" fill="#90576F" points="153.468844 92.4325478 211.848415 92.4325478 211.848415 32.0194076 153.468844 32.0194076"></polygon>
                    <polygon id="Fill-113" fill="#AE8D9B" points="153.468844 92.4325478 211.848415 92.4325478 211.848415 53.8931307 153.468844 53.8931307"></polygon>
                    <polygon id="Stroke-114" stroke="#5E3E5A" stroke-width="5" stroke-linecap="round" stroke-linejoin="round" points="153.468844 92.4325478 211.848415 92.4325478 211.848415 32.0194076 153.468844 32.0194076"></polygon>
                    <polygon id="Fill-115" fill="#B9688A" points="51.0835868 150.762476 63.5934949 150.762476 63.5934949 115.347877 51.0835868 115.347877"></polygon>
                    <polygon id="Stroke-116" stroke="#5E3E5A" stroke-width="5" stroke-linecap="round" stroke-linejoin="round" points="51.0835868 150.762476 63.5934949 150.762476 63.5934949 115.347877 51.0835868 115.347877"></polygon>
                    <polygon id="Fill-115" fill="#B9688A" points="173.948755 150.762476 186.458663 150.762476 186.458663 115.347877 173.948755 115.347877"></polygon>
                    <polygon id="Stroke-116" stroke="#5E3E5A" stroke-width="5" stroke-linecap="round" stroke-linejoin="round" points="173.948755 150.762476 186.458663 150.762476 186.458663 115.347877 173.948755 115.347877"></polygon>
                    <path d="M188.690908,115.347877 L46.9119495,115.347877 C44.6101264,115.347877 42.7419801,113.485486 42.7419801,111.181453 L42.7419801,92.4325478 C42.7419801,90.1285156 44.6101264,88.2661243 46.9119495,88.2661243 L188.690908,88.2661243 C190.992731,88.2661243 192.860877,90.1285156 192.860877,92.4325478 L192.860877,111.181453 C192.860877,113.485486 190.992731,115.347877 188.690908,115.347877" id="Fill-117" fill="#FE7D71"></path>
                    <path d="M188.690908,88.2661243 L46.9119495,88.2661243 C44.6101264,88.2661243 42.7419801,90.132682 42.7419801,92.4325478 L42.7419801,100.765395 C42.7419801,98.465529 44.6101264,96.5989713 46.9119495,96.5989713 L188.690908,96.5989713 C190.992731,96.5989713 192.860877,98.465529 192.860877,100.765395 L192.860877,92.4325478 C192.860877,90.132682 190.992731,88.2661243 188.690908,88.2661243" id="Fill-118" fill="#D4695F"></path>
                    <path d="M188.690908,115.347877 L46.9119495,115.347877 C44.6101264,115.347877 42.7419801,113.485486 42.7419801,111.181453 L42.7419801,92.4325478 C42.7419801,90.1285156 44.6101264,88.2661243 46.9119495,88.2661243 L188.690908,88.2661243 C190.992731,88.2661243 192.860877,90.1285156 192.860877,92.4325478 L192.860877,111.181453 C192.860877,113.485486 190.992731,115.347877 188.690908,115.347877 Z" id="Stroke-119" stroke="#5E3E5A" stroke-width="5" stroke-linecap="round" stroke-linejoin="round"></path>
                    <path d="M188.690908,140.346418 L46.9119495,140.346418 C44.6101264,140.346418 42.7419801,138.484026 42.7419801,136.179994 L42.7419801,132.013571 C42.7419801,129.709539 44.6101264,127.847147 46.9119495,127.847147 L188.690908,127.847147 C190.992731,127.847147 192.860877,129.709539 192.860877,132.013571 L192.860877,136.179994 C192.860877,138.484026 190.992731,140.346418 188.690908,140.346418" id="Fill-120" fill="#FE7D71"></path>
                    <path d="M188.690908,140.346418 L46.9119495,140.346418 C44.6101264,140.346418 42.7419801,138.484026 42.7419801,136.179994 L42.7419801,132.013571 C42.7419801,129.709539 44.6101264,127.847147 46.9119495,127.847147 L188.690908,127.847147 C190.992731,127.847147 192.860877,129.709539 192.860877,132.013571 L192.860877,136.179994 C192.860877,138.484026 190.992731,140.346418 188.690908,140.346418 Z" id="Stroke-121" stroke="#5E3E5A" stroke-width="5" stroke-linecap="round" stroke-linejoin="round"></path>
                </g>
            </g>
            <g id="Group-160" transform="translate(71.735537, 45.289256)">
                <path d="M208.532419,297.711468 C208.532419,302.06965 187.300273,305.608384 161.1106,305.608384 C134.920928,305.608384 113.688782,302.06965 113.688782,297.711468 C113.688782,293.348708 134.920928,289.809975 161.1106,289.809975 C187.300273,289.809975 208.532419,293.348708 208.532419,297.711468" id="Fill-123" fill-opacity="0.15" fill="#020202"></path>
                <path d="M198.681968,92.3889162 L123.540149,92.3889162 C121.010986,92.3889162 118.958331,90.342585 118.958331,87.8109941 L118.958331,7.46846163 C118.958331,4.93687072 121.010986,2.89053955 123.540149,2.89053955 L198.681968,2.89053955 C201.211131,2.89053955 203.263786,4.93687072 203.263786,7.46846163 L203.263786,87.8109941 C203.263786,90.342585 201.211131,92.3889162 198.681968,92.3889162" id="Fill-125" fill="#FE7D71"></path>
                <g id="01-airport" transform="translate(131.264463, 33.710744)">
                    <g id="Scene">
                        <path d="M38.365641,18.615641 L55.3607692,10.6346154 C56.7459941,10.0041589 57.5109805,8.49940543 57.2041026,7.00871795 C56.9280232,5.54453288 55.7108317,4.44326439 54.2264103,4.31461538 L51.2689744,4.05128205 C47.9515165,2.46371745 44.0936117,2.46371745 40.7761538,4.05128205 L32.8964103,8.1025641 L23.0923077,13.3287179 L11.9512821,19.2233333 C11.1136123,19.6607448 10.0890973,19.5050186 9.41923077,18.8384615 L4.29435897,13.7541026 C3.99141969,13.4327092 3.51256171,13.3501475 3.11948718,13.5515385 L1.09384615,14.5035897 C0.574846503,14.76638 0.352330448,15.389425 0.587435897,15.9215385 L5.3274359,26.0497436 C5.7535396,26.9200789 6.70143377,27.4063898 7.65692308,27.2448718 L22.6466667,24.4292308 C24.0241026,24.1658974 25.3812821,23.8417949 26.6979487,23.4569231 L38.365641,18.615641 Z" id="Shape" fill="#FFFFFF" fill-rule="nonzero"></path>
                        <path d="M18.6561538,15.6784615 L11.9512821,19.2233333 C11.1136123,19.6607448 10.0890973,19.5050186 9.41923077,18.8384615 L4.29435897,13.7541026 C3.99141969,13.4327092 3.51256171,13.3501475 3.11948718,13.5515385 L1.09384615,14.5035897 C0.559350955,14.7517513 0.317516623,15.3787292 0.546923077,15.9215385 L5.28692308,26.0497436 C5.71302678,26.9200789 6.66092095,27.4063898 7.61641026,27.2448718 L14.1794872,25.9889744 L18.6561538,15.6784615 Z" id="Shape" stroke="#5E3E5A" stroke-width="3" fill="#D6DAFF" fill-rule="nonzero" stroke-linecap="round" stroke-linejoin="round"></path>
                        <g id="Group-17" stroke="#5E3E5A" stroke-linecap="round" stroke-linejoin="round" stroke-width="4">
                            <path d="M34.072679,8.38196286 L19.5928382,1.25729443 C18.0628096,0.523187203 16.2822832,0.523187203 14.7522546,1.25729443 L11.2318302,2.9127321 C11.030581,3.00325727 10.8942211,3.19576532 10.8755968,3.41564987 C10.8449912,3.63671939 10.9424539,3.85601057 11.1270557,3.98143236 L23.930504,13.8092838 L34.072679,8.38196286 Z" id="Shape" fill="#D6DAFF" fill-rule="nonzero"></path>
                            <path d="M39.6885942,19.2575597 L57.2697613,11.0013263 C58.7027525,10.3491299 59.4941177,8.79248838 59.1766578,7.25039788 C58.8910585,5.73572366 57.6318949,4.59648041 56.0962865,4.46339523 L53.03687,4.19098143 C49.6050171,2.54867323 45.6140811,2.54867323 42.1822281,4.19098143 L34.0307692,8.38196286 L23.8885942,13.7883289 L12.3633952,19.8862069 C11.4968403,20.3387016 10.4369972,20.1776054 9.74403183,19.4880637 L4.44244032,14.228382 C4.12905485,13.895906 3.63368453,13.8104974 3.2270557,14.0188329 L1.13156499,15.0037135 C0.594668796,15.2755655 0.364479774,15.9200948 0.607692308,16.470557 L5.51114058,26.9480106 C5.95193752,27.8483575 6.93251769,28.3514377 7.92095491,28.1843501 L23.4275862,25.271618 C24.8525199,24.9992042 26.2564987,24.6639257 27.6185676,24.2657825 L39.6885942,19.2575597 Z" id="Shape"></path>
                            <path d="M35.1623342,35.6233422 C34.8550053,36.8531297 34.0075822,37.8777413 32.8572944,38.4103448 L31.9981432,38.8084881 C31.1028048,39.2265798 30.0541976,39.1471905 29.2320109,38.5990659 C28.4098241,38.0509414 27.9332311,37.1135307 27.9748011,36.1262599 L28.4777188,24.370557 L28.7082228,18.8594164 L39.8143236,13.6416446 C40.0304879,13.5314264 40.2914995,13.5603614 40.478275,13.7152484 C40.6650504,13.8701353 40.7417871,14.1212843 40.6734748,14.3541114 L39.4371353,19.1737401 L35.1623342,35.6233422 Z" id="Shape" fill="#D6DAFF" fill-rule="nonzero"></path>
                        </g>
                    </g>
                </g>
                <path d="M197.995153,2.89145514 L124.22788,2.89145514 C121.318426,2.89145514 118.958789,5.24908501 118.958789,8.15606553 L118.958789,21.3175915 C118.958789,18.410611 121.318426,16.0529811 124.22788,16.0529811 L197.995153,16.0529811 C200.904608,16.0529811 203.264244,18.410611 203.264244,21.3175915 L203.264244,8.15606553 C203.264244,5.24908501 200.904608,2.89145514 197.995153,2.89145514" id="Fill-127" fill="#D4695F"></path>
                <path d="M198.681968,92.3889162 L123.540149,92.3889162 C121.010986,92.3889162 118.958331,90.342585 118.958331,87.8109941 L118.958331,7.46846163 C118.958331,4.93687072 121.010986,2.89053955 123.540149,2.89053955 L198.681968,2.89053955 C201.211131,2.89053955 203.263786,4.93687072 203.263786,7.46846163 L203.263786,87.8109941 C203.263786,90.342585 201.211131,92.3889162 198.681968,92.3889162 Z" id="Stroke-129" stroke="#5E3E5A" stroke-width="5" stroke-linecap="round" stroke-linejoin="round"></path>
                <polygon id="Fill-131" fill="#B9688A" points="153.206506 284.552689 169.013779 284.552689 169.013779 92.3898318 153.206506 92.3898318"></polygon>
                <polygon id="Stroke-134" stroke="#5E3E5A" stroke-width="5" stroke-linecap="round" stroke-linejoin="round" points="153.206506 284.552689 169.013779 284.552689 169.013779 92.3898318 153.206506 92.3898318"></polygon>
                <path d="M187.455597,295.078247 L134.764688,295.078247 C131.855233,295.078247 129.495597,292.720617 129.495597,289.813637 C129.495597,286.906656 131.855233,284.549027 134.764688,284.549027 L187.455597,284.549027 C190.365051,284.549027 192.724688,286.906656 192.724688,289.813637 C192.724688,292.720617 190.365051,295.078247 187.455597,295.078247" id="Fill-135" fill="#BDBEC0"></path>
                <path d="M187.455597,295.078247 L134.764688,295.078247 C131.855233,295.078247 129.495597,292.720617 129.495597,289.813637 C129.495597,286.906656 131.855233,284.549027 134.764688,284.549027 L187.455597,284.549027 C190.365051,284.549027 192.724688,286.906656 192.724688,289.813637 C192.724688,292.720617 190.365051,295.078247 187.455597,295.078247 Z" id="Stroke-136" stroke="#5E3E5A" stroke-width="5" stroke-linecap="round" stroke-linejoin="round"></path>
                <path d="M76.8051458,58.1707798 C76.8051458,55.0028577 74.5188185,52.4850006 71.5360549,51.8532473 L71.5360549,47.641559 C71.5360549,30.195098 57.3828185,16.0538967 39.9215094,16.0538967 C22.4602003,16.0538967 8.30696397,30.195098 8.30696397,47.641559 L8.30696397,51.8532473 C5.32420033,52.4850006 3.03787306,55.0028577 3.03787306,58.1707798 C3.03787306,61.5721759 5.65409124,64.2777279 8.9713276,64.6164941 C11.9495094,78.9728577 24.6732185,89.7538642 39.9215094,89.7538642 C55.1698003,89.7538642 67.8935094,78.9728577 70.8716912,64.6164941 C74.1889276,64.2777279 76.8051458,61.5721759 76.8051458,58.1707798" id="Fill-148" fill="#FFDA8F"></path>
                <path d="M76.8051458,58.1707798 C76.8051458,55.0028577 74.5188185,52.4850006 71.5360549,51.8532473 L71.5360549,47.641559 C71.5360549,30.195098 57.3828185,16.0538967 39.9215094,16.0538967 C22.4602003,16.0538967 8.30696397,30.195098 8.30696397,47.641559 L8.30696397,51.8532473 C5.32420033,52.4850006 3.03787306,55.0028577 3.03787306,58.1707798 C3.03787306,61.5721759 5.65409124,64.2777279 8.9713276,64.6164941 C11.9495094,78.9728577 24.6732185,89.7538642 39.9215094,89.7538642 C55.1698003,89.7538642 67.8935094,78.9728577 70.8716912,64.6164941 C74.1889276,64.2777279 76.8051458,61.5721759 76.8051458,58.1707798 Z" id="Stroke-149" stroke="#5E3E5A" stroke-width="5" stroke-linecap="round" stroke-linejoin="round"></path>
                <path d="M26.7496985,62.118322 C26.7496985,64.3019909 24.9811167,66.0644909 22.7955894,66.0644909 C20.614644,66.0644909 18.8460621,64.3019909 18.8460621,62.118322 C18.8460621,59.9346532 20.614644,58.1721532 22.7955894,58.1721532 C24.9811167,58.1721532 26.7496985,59.9346532 26.7496985,62.118322" id="Fill-150" fill="#BD704A"></path>
                <path d="M60.9969567,62.118322 C60.9969567,64.3019909 59.2283749,66.0644909 57.0474294,66.0644909 C54.866484,66.0644909 53.0933203,64.3019909 53.0933203,62.118322 C53.0933203,59.9346532 54.866484,58.1721532 57.0474294,58.1721532 C59.2283749,58.1721532 60.9969567,59.9346532 60.9969567,62.118322" id="Fill-151" fill="#BD704A"></path>
                <path d="M47.8242294,71.3323058 C45.4325203,72.9254227 42.5551385,73.964611 39.9205931,73.964611 C37.2860476,73.964611 34.4086658,72.9254227 32.0169567,71.3323058" id="Stroke-152" stroke="#5E3E5A" stroke-width="5" stroke-linecap="round" stroke-linejoin="round" transform="translate(39.920593, 73.621267) scale(1, -1) translate(-39.920593, -73.621267) "></path>
                <path d="M28.0651385,47.6424746 C25.8841931,47.6424746 24.1156112,49.4095525 24.1156112,51.5886434 C24.1156112,53.7677344 25.8841931,55.5393902 28.0651385,55.5393902 C30.246084,55.5393902 32.0192476,53.7677344 32.0192476,51.5886434 C32.0192476,49.4095525 30.246084,47.6424746 28.0651385,47.6424746" id="Fill-153" fill="#5E3E5A"></path>
                <path d="M51.7774221,47.6424746 C49.5964767,47.6424746 47.8233131,49.4095525 47.8233131,51.5886434 C47.8233131,53.7677344 49.5964767,55.5393902 51.7774221,55.5393902 C53.9583676,55.5393902 55.7269494,53.7677344 55.7269494,51.5886434 C55.7269494,49.4095525 53.9583676,47.6424746 51.7774221,47.6424746" id="Fill-154" fill="#5E3E5A"></path>
                <path d="M41.3588258,1.3894389 C40.3324985,-0.313548111 37.8628985,-0.313548111 36.8411531,1.3894389 L31.1963531,10.7879129 L25.5561349,7.0294389 C24.2365712,6.15505579 22.4221712,6.6357376 21.7028258,8.0457376 C20.337444,10.7146662 19.9892258,13.3835947 20.6581712,16.0525233 C20.6581712,16.0525233 17.1576621,16.0525233 13.0111167,14.6287896 C11.3845712,14.0702831 9.57475306,15.0957376 9.43271669,16.8078805 C8.89206215,23.4229779 12.7545349,29.2140493 12.7545349,29.2140493 C12.7545349,29.2140493 7.93904397,29.2140493 4.5714076,27.9642766 C3.11897124,27.4240818 1.53366215,28.3533999 1.16253488,29.8549584 C-1.79273785,41.8399584 4.85089851,52.904796 4.85089851,52.904796 C12.7545349,52.904796 9.47395306,42.6639844 12.7545349,42.3755753 C19.8059531,41.7621337 23.311044,35.9161272 24.8642803,32.2217441 C25.5011531,30.7064519 27.3384621,30.2211921 28.7267531,31.109309 C41.3954803,39.2442766 55.7778076,42.8196337 63.1499531,44.2158999 C67.1636258,44.9804129 70.4029712,47.9331727 71.5346803,51.851874 C71.5346803,51.851874 79.6765712,41.7071986 77.0145349,29.8961597 C76.6617349,28.3396662 75.021444,27.4561272 73.5415167,27.996322 C70.183044,29.2140493 65.445444,29.2140493 65.445444,29.2140493 C65.445444,29.2140493 69.3079167,23.4229779 68.7626803,16.8078805 C68.6252258,15.0957376 66.8154076,14.0702831 65.1888621,14.6287896 C61.0423167,16.0525233 57.5418076,16.0525233 57.5418076,16.0525233 C58.2107531,13.3835947 57.8625349,10.7146662 56.4971531,8.0457376 C55.7732258,6.6357376 53.9588258,6.15505579 52.643844,7.0294389 L47.0036258,10.7879129 L41.3588258,1.3894389 Z" id="Fill-155" fill="#724F3D"></path>
                <path d="M11.3286731,24.788572 C11.456964,23.1817214 13.1522367,22.2249357 14.6734003,22.7468188 C16.1258367,23.2458123 17.5003821,23.557111 18.6458367,23.7539616 C20.1166003,24.0057473 21.4911458,22.8887344 21.5278003,21.382598 C21.5644549,19.7849032 21.990564,18.1872084 22.8061276,16.5849357 C23.4842367,15.2664941 25.1795094,14.8132798 26.4120185,15.6373058 L29.5459821,17.7202603 C30.7143458,18.503085 32.2996549,18.1460071 33.0235821,16.9374357 L36.9776912,10.3589616 C37.9352912,8.76126682 40.2491094,8.76126682 41.2067094,10.3589616 L45.1562367,16.9374357 C45.8847458,18.1460071 47.4700549,18.503085 48.6384185,17.7202603 L51.7678003,15.6373058 C53.0003094,14.8132798 54.700164,15.2664941 55.3736912,16.5849357 C56.1938367,18.1872084 56.6199458,19.7849032 56.6566003,21.382598 C56.6932549,22.8887344 58.0586367,24.0057473 59.538564,23.7539616 C60.6794367,23.557111 62.0539821,23.2458123 63.5110003,22.7468188 C65.032164,22.2249357 66.7228549,23.1817214 66.8557276,24.788572 C66.9015458,25.3562344 66.9107094,25.9193188 66.896964,26.4686694 C67.9278731,24.1568188 69.0779094,20.6226629 68.7663458,16.8046759 C68.6243094,15.097111 66.8144912,14.0670785 65.1879458,14.625585 C61.0414003,16.0538967 57.5408912,16.0538967 57.5408912,16.0538967 C58.2098367,13.3849681 57.8616185,10.7160396 56.4962367,8.04711098 C55.7768912,6.63253306 53.9624912,6.15642916 52.6429276,7.03081228 L47.0027094,10.7847084 L41.3579094,1.39081228 C40.336164,-0.312174734 37.866564,-0.312174734 36.8402367,1.39081228 L31.1954367,10.7847084 L25.5552185,7.03081228 C24.2356549,6.15642916 22.4212549,6.63253306 21.7019094,8.04711098 C20.3365276,10.7160396 19.9883094,13.3849681 20.6572549,16.0538967 C20.6572549,16.0538967 17.1567458,16.0538967 13.0102003,14.625585 C11.3836549,14.0670785 9.57383669,15.097111 9.43180033,16.8046759 C9.12481851,20.5997733 10.2565276,24.1201954 11.2828549,26.432046 C11.2691094,25.8918512 11.2828549,25.3425006 11.3286731,24.788572" id="Fill-156" fill="#A86C4E"></path>
                <path d="M65.576484,32.6969324 C64.8937931,34.4777441 66.4012112,36.3180688 68.2751749,36.011348 C69.3015021,35.8419649 70.3736476,35.6039129 71.3266658,35.2605688 C72.7103749,34.7524194 74.245284,35.5810233 74.5751749,37.0322246 C75.4090658,40.7266077 75.1112476,44.2424519 74.3506658,47.291348 C76.4033203,43.2261532 78.579684,36.8445298 77.0127021,29.8952441 C76.6599021,28.3387506 75.0241931,27.4552116 73.539684,27.9954064 C71.2029567,28.842322 68.2018658,29.1032636 66.5890658,29.1765103 C66.3416476,30.4812181 65.9659385,31.6714779 65.576484,32.6969324" id="Fill-157" fill="#A86C4E"></path>
                <path d="M3.58540033,36.9978902 C3.93361851,35.5924681 5.41354579,34.7226629 6.77434579,35.2262344 C7.75027306,35.5878902 8.84990942,35.8396759 9.90830942,36.009059 C11.7776912,36.3203577 13.2851094,34.4708772 12.6070003,32.6992214 C12.212964,31.6737668 11.8418367,30.4789292 11.5944185,29.1787993 C9.95870942,29.0963967 6.91638215,28.8354551 4.57049124,27.961072 C3.11805488,27.4208772 1.53274579,28.3501954 1.16161851,29.8517538 C-1.19343603,39.4058772 2.5453276,48.3694486 4.16270942,51.6197733 C3.01267306,47.6690266 2.24750942,42.4318837 3.58540033,36.9978902" id="Fill-158" fill="#A86C4E"></path>
                <path d="M41.3588258,1.3894389 C40.3324985,-0.313548111 37.8628985,-0.313548111 36.8411531,1.3894389 L31.1963531,10.7879129 L25.5561349,7.0294389 C24.2365712,6.15505579 22.4221712,6.6357376 21.7028258,8.0457376 C20.337444,10.7146662 19.9892258,13.3835947 20.6581712,16.0525233 C20.6581712,16.0525233 17.1576621,16.0525233 13.0111167,14.6287896 C11.3845712,14.0702831 9.57475306,15.0957376 9.43271669,16.8078805 C8.89206215,23.4229779 12.7545349,29.2140493 12.7545349,29.2140493 C12.7545349,29.2140493 7.93904397,29.2140493 4.5714076,27.9642766 C3.11897124,27.4240818 1.53366215,28.3533999 1.16253488,29.8549584 C-1.79273785,41.8399584 4.85089851,52.904796 4.85089851,52.904796 C12.7545349,52.904796 9.47395306,42.6639844 12.7545349,42.3755753 C19.8059531,41.7621337 23.311044,35.9161272 24.8642803,32.2217441 C25.5011531,30.7064519 27.3384621,30.2211921 28.7267531,31.109309 C41.3954803,39.2442766 55.7778076,42.8196337 63.1499531,44.2158999 C67.1636258,44.9804129 70.4029712,47.9331727 71.5346803,51.851874 C71.5346803,51.851874 79.6765712,41.7071986 77.0145349,29.8961597 C76.6617349,28.3396662 75.021444,27.4561272 73.5415167,27.996322 C70.183044,29.2140493 65.445444,29.2140493 65.445444,29.2140493 C65.445444,29.2140493 69.3079167,23.4229779 68.7626803,16.8078805 C68.6252258,15.0957376 66.8154076,14.0702831 65.1888621,14.6287896 C61.0423167,16.0525233 57.5418076,16.0525233 57.5418076,16.0525233 C58.2107531,13.3835947 57.8625349,10.7146662 56.4971531,8.0457376 C55.7732258,6.6357376 53.9588258,6.15505579 52.643844,7.0294389 L47.0036258,10.7879129 L41.3588258,1.3894389 Z" id="Stroke-159" stroke="#5E3E5A" stroke-width="5" stroke-linecap="round" stroke-linejoin="round"></path>
            </g>
        </g>
    </g>
</svg>