<?xml version="1.0" encoding="UTF-8"?>
<svg width="234px" height="50px" viewBox="0 0 234 50" version="1.1" xmlns="http://www.w3.org/2000/svg" xmlns:xlink="http://www.w3.org/1999/xlink">
    <g stroke="none" stroke-width="1" fill="none" fill-rule="evenodd">
        <path d="M7.53972457,0.769673863 L0.510887794,7.67420856 C-0.00714251548,8.18223976 -0.0118661961,9.01072139 0.499865872,9.52500528 C1.01159794,10.037726 1.84611485,10.0439787 2.36414516,9.53438432 L7.10986963,4.87300273 L7.10986963,48.5668116 C7.10986963,49.2905607 7.70032971,49.8751874 8.42777653,49.8751874 L232.539655,49.8751874 C233.268676,49.8751874 233.857562,49.2905607 233.857562,48.5668116 L233.857562,2.78460373 C233.857562,2.06085468 233.268676,1.47622801 232.539655,1.47622801 C231.810634,1.47622801 231.221748,2.06085468 231.221748,2.78460373 L231.221748,47.2584359 L9.74725799,47.2584359 L9.74725799,4.84486561 L14.4835351,9.59534806 C14.7401884,9.85483476 15.0802934,9.98457811 15.4203984,9.98457811 C15.7557797,9.98457811 16.0911611,9.85952428 16.3478144,9.60629027 C16.8642701,9.09825908 16.8705684,8.26977744 16.3572617,7.75549356 L9.40400386,0.780616073 C8.89384635,0.266332189 8.05775488,0.258516324 7.53972457,0.769673863" fill="#1ABB97"></path>
    </g>
</svg>