<?xml version="1.0" encoding="UTF-8"?>
<svg width="161px" height="162px" viewBox="0 0 161 162" version="1.1" xmlns="http://www.w3.org/2000/svg" xmlns:xlink="http://www.w3.org/1999/xlink">
    <defs>
        <ellipse id="path-1de-7-5-2-erge-g-3" cx="60.658083" cy="61.9377894" rx="60.658083" ry="61.9377894"></ellipse>
        <filter x="-24.7%" y="-24.2%" width="149.5%" height="148.4%" filterUnits="objectBoundingBox" id="filter-2-1de-7-5-2-erge-g-3">
            <feOffset dx="0" dy="0" in="SourceAlpha" result="shadowOffsetOuter1"></feOffset>
            <feGaussianBlur stdDeviation="10" in="shadowOffsetOuter1" result="shadowBlurOuter1"></feGaussianBlur>
            <feColorMatrix values="0 0 0 0 0.102   0 0 0 0 0.263   0 0 0 0 0.502  0 0 0 0.188717165 0" type="matrix" in="shadowBlurOuter1"></feColorMatrix>
        </filter>
    </defs>
    <g stroke="none" stroke-width="1" fill="none" fill-rule="evenodd">
        <g transform="translate(19.869814, 19.005360)">
            <g>
                <use fill="black" fill-opacity="1" filter="url(#filter-2-1de-7-5-2-erge-g-3)" xlink:href="#path-1de-7-5-2-erge-g-3"></use>
                <use fill="#FFFFFF" fill-rule="evenodd" xlink:href="#path-1de-7-5-2-erge-g-3"></use>
            </g>
            <g transform="translate(18.871404, 28.904302)" fill-rule="nonzero">
                <path d="M19.4034311,47.9275772 C17.6773418,45.7733745 15.9543138,43.515743 14.432938,41.4717648 L10.5821136,45.4030148 C10.3325441,45.6578495 10.1921197,46.0030655 10.1921197,46.3640474 C10.1921197,46.7250292 10.3325441,47.0700754 10.5821136,47.3249441 L15.2881296,52.1309226 L19.4034311,47.9275772 Z" fill="#F2C9B8"></path>
                <path d="M30.6978161,59.4600705 C29.2511115,58.252222 27.8680305,57.051169 26.6390837,55.9163052 L22.8175421,59.81847 L26.5825146,63.6635179 L30.6978161,59.4600705 Z" fill="#F2C9B8"></path>
                <path d="M24.7002946,54.052818 C23.6059156,52.9352149 22.3806956,51.5429 21.1140804,50.0258861 L17.1703496,54.052818 L20.9353221,57.8965407 L24.7002946,54.052818 Z" fill="#F2C9B8"></path>
                <path d="M32.7814221,61.1776224 L28.4646015,65.5855151 L33.1707506,70.3901345 C33.4307022,70.6555704 33.7713147,70.7883562 34.111794,70.7883562 C34.4524065,70.7883562 34.7928859,70.6555704 35.0529706,70.3901345 L39.1676066,66.1893714 C37.2912431,64.7586275 35.0385954,63.0079471 32.7814221,61.1776224 Z" fill="#F2C9B8"></path>
                <path d="M21.1140804,50.0259201 C20.5493212,49.34772 19.9773744,48.6442403 19.4034311,47.9275772 L15.2881296,52.1309226 L17.1703496,54.0528519 L21.1140804,50.0259201 Z" fill="#FCD1C0"></path>
                <path d="M26.6390837,55.9163392 C25.9377601,55.2699424 25.2749034,54.6394474 24.7002946,54.0528519 L20.9353221,57.8965747 L22.8175421,59.818504 L26.6390837,55.9163392 Z" fill="#FCD1C0"></path>
                <path d="M32.7814221,61.1776224 C32.080764,60.6095109 31.3854301,60.0348756 30.6978161,59.4601044 L26.5825146,63.6635518 L28.4646015,65.5855151 L32.7814221,61.1776224 Z" fill="#FCD1C0"></path>
                <path d="M63.0963321,40.9819385 C63.0287154,40.9925397 62.9610986,40.9978402 62.8941475,40.9978402 C62.5354329,40.9978402 62.1884314,40.8492886 61.9355343,40.5824936 L49.6955803,27.6151451 C47.1525002,29.036647 43.4921472,30.868195 40.8891704,30.5695966 C38.9660875,30.353225 33.8414603,32.3653998 31.0727694,33.6925789 C30.8953421,33.7775238 30.7016761,33.8213893 30.5066791,33.8213893 C30.4651508,33.8213893 30.4234893,33.8200302 30.3819609,33.8161227 C25.1877205,33.3170545 24.6431931,32.7609032 24.350631,32.4635281 C23.0982579,31.1840541 24.4091967,29.2980055 24.9694303,28.492456 C26.1086653,26.8531893 28.211172,24.4747322 31.3971432,21.2229395 C34.2833648,18.2751476 37.469336,16.0824819 40.2536001,14.5003322 C38.072429,12.8027933 36.2974906,11.4583534 35.1939275,10.6301066 C35.1465425,10.6844714 35.1114031,10.7454958 35.0606906,10.7972782 L10.5742605,35.8002657 C10.5216845,35.8548003 10.4599244,35.8919043 10.4053518,35.9409684 C11.2814407,37.1727374 12.7202922,39.1715928 14.432938,41.4717648 C15.9543138,43.515743 17.6773418,45.7733745 19.4034311,47.9275772 C19.9773744,48.6442403 20.5493212,49.34772 21.1140804,50.0259201 C22.3806956,51.542934 23.6059156,52.9352489 24.7002946,54.0528519 C25.2749034,54.6394474 25.9377601,55.2699424 26.6390837,55.9163392 C27.8680305,57.051203 29.2511115,58.2522559 30.6978161,59.4601044 C31.3854301,60.0348756 32.080764,60.6095109 32.7814221,61.1776224 C35.0385954,63.0079471 37.2912431,64.7586275 39.1676066,66.1893714 C41.6703563,68.0966223 43.4946762,69.430597 43.6916697,69.573848 C43.9243351,69.7437378 44.1953343,69.8273236 44.4644701,69.8273236 C44.8076115,69.8273236 45.1487564,69.6919554 45.4061791,69.4292378 L51.0507095,63.6649109 C50.7914234,63.9290216 50.4514764,64.0617735 50.112195,64.0617735 C49.7717156,64.0617735 49.4311032,63.9290216 49.1711515,63.6635518 L35.9946796,50.2077701 C35.4747764,49.6768645 35.4747764,48.8168483 35.9946796,48.2858408 C36.5145828,47.7549691 37.3568633,47.7549691 37.8767665,48.2858408 L51.0533716,61.7416565 C51.5726093,62.2713049 51.5726093,63.1299959 51.055235,63.6608336 L56.6997655,57.8965747 C56.4398139,58.1620105 56.0993345,58.2947963 55.7593875,58.2947963 C55.418775,58.2947963 55.0782957,58.1620105 54.8183441,57.8965747 L41.6412066,44.4421181 C41.1211703,43.9112464 41.1211703,43.0511623 41.6412066,42.5203247 C42.1611098,41.9893171 43.0033903,41.9893171 43.5232935,42.5203247 L56.700431,55.9747812 C57.2198018,56.5056529 57.2198018,57.3643439 56.7010965,57.8953514 L62.344429,52.1336409 C62.0843443,52.3964604 61.7458615,52.5291443 61.40658,52.5291443 C61.0659676,52.5291443 60.7254882,52.3964604 60.4654035,52.1309226 L47.288266,38.676466 C46.7683628,38.1455944 46.7683628,37.2855443 47.288266,36.7546726 C47.8083023,36.2236651 48.6505828,36.2236651 49.170486,36.7546726 L62.3476235,50.2091292 C62.8663288,50.7386417 62.8668612,51.5961095 62.3496201,52.1269812 L67.9941505,46.3640474 C68.4542901,45.8942001 68.5140537,45.1536165 68.1364384,44.613367 C67.9862974,44.3997136 66.5174976,42.303953 64.4526592,39.4913934 L64.0855591,40.2439373 C63.8930911,40.6395766 63.5239944,40.9156136 63.0963321,40.9819385 Z" fill="#FFE9E1"></path>
                <path d="M62.3476235,50.2091292 L49.170486,36.7546726 C48.6505828,36.2236651 47.8083023,36.2236651 47.288266,36.7546726 C46.7683628,37.2855443 46.7683628,38.1455944 47.288266,38.676466 L60.4654035,52.1309226 C60.7254882,52.3964604 61.0659676,52.5291443 61.40658,52.5291443 C61.7458615,52.5291443 62.0843443,52.3964604 62.344429,52.1336409 C62.3450945,52.1322817 62.346958,52.1322817 62.3476235,52.1309226 C62.348289,52.1296994 62.3489545,52.1283403 62.3496201,52.1269812 C62.8668612,51.5961095 62.8663288,50.7386078 62.3476235,50.2091292 Z" fill="#FCD1C0"></path>
                <path d="M56.700431,55.9747473 L43.5232935,42.5202907 C43.0033903,41.9892831 42.1611098,41.9892831 41.6412066,42.5202907 C41.1211703,43.0511283 41.1211703,43.9112124 41.6412066,44.4420841 L54.8183441,57.8965407 C55.0782624,58.1619765 55.418775,58.2947624 55.7593875,58.2947624 C56.0993345,58.2947624 56.4398139,58.1619765 56.6997655,57.8965407 L56.7010965,57.8953175 C57.2198018,57.3643099 57.2198018,56.5056529 56.700431,55.9747473 Z" fill="#FCD1C0"></path>
                <path d="M51.0533716,61.7416225 L37.8767665,48.2858068 C37.3568633,47.7549352 36.5145828,47.7549352 35.9946796,48.2858068 C35.4747764,48.8168144 35.4747764,49.6768305 35.9946796,50.2077361 L49.1711515,63.6635179 C49.4311032,63.9289876 49.7717156,64.0617395 50.112195,64.0617395 C50.4514764,64.0617395 50.7914234,63.9289876 51.0507095,63.664877 C51.0507095,63.664877 51.0527061,63.664877 51.0533716,63.6635179 C51.0533716,63.6635179 51.053904,63.6621587 51.055235,63.6607996 C51.5726093,63.1299619 51.5726093,62.2713049 51.0533716,61.7416225 Z" fill="#FCD1C0"></path>
                <path d="M35.0606906,10.7972782 C35.1114031,10.7454958 35.1465425,10.6844714 35.1939275,10.6301066 C36.5971071,9.03599669 36.5601043,6.57786119 35.0548341,5.04100409 L31.2860016,1.19184489 C29.7288209,-0.394110355 27.1999829,-0.395469474 25.6491911,1.18790345 L1.16276102,26.1909249 C-0.38989414,27.775657 -0.387232065,30.3585256 1.16861759,31.947335 L4.93758318,35.7963582 C5.71677249,36.5900834 6.73914235,36.9881352 7.76137909,36.9881352 C8.71160672,36.9881352 9.6533157,36.6299055 10.4053518,35.9409684 C10.4599244,35.8919043 10.5216845,35.8548003 10.5742605,35.8002657 L35.0606906,10.7972782 Z" fill="#B9688A"></path>
                <path d="M45.5601801,11.9229001 C44.2291427,12.4590723 42.3631613,13.3018616 40.2536001,14.5003322 C37.469336,16.0824819 34.2833648,18.2751476 31.3971432,21.2229395 C28.211172,24.4747322 26.1086653,26.8531893 24.9694303,28.492456 C24.4091967,29.2980055 23.0982579,31.1840541 24.350631,32.4635281 C24.6431931,32.7609032 25.1877205,33.3170545 30.3819609,33.8161227 C30.4234893,33.8200302 30.4651508,33.8213893 30.5066791,33.8213893 C30.7016761,33.8213893 30.8953421,33.7775238 31.0727694,33.6925789 C33.8414603,32.3653998 38.9660875,30.353225 40.8891704,30.5695966 C43.4921472,30.868195 47.1525002,29.036647 49.6955803,27.6151451 L61.9355343,40.5824936 C62.1884314,40.8492886 62.5354329,40.9978402 62.8941475,40.9978402 C62.9610986,40.9978402 63.0287154,40.9925397 63.0963321,40.9819385 C63.5239944,40.9156136 63.8930911,40.6395766 64.0855591,40.2439373 L64.4526592,39.4913934 L67.146679,33.9660335 L45.5601801,11.9229001 Z" fill="#F2C9B8"></path>
                <path d="M78.3552121,26.1909249 L53.8687819,1.18790345 C52.3167923,-0.39818771 49.7872888,-0.395469474 48.231306,1.19320401 L44.4624735,5.04100409 C43.7065774,5.81339107 43.2899626,6.83680722 43.2899626,7.92383011 C43.2892971,9.00813476 43.7040484,10.0288327 44.4572825,10.7972782 L45.5601801,11.9229001 L67.146679,33.9660335 L68.9437126,35.8002657 C69.7190419,36.5926317 70.7380842,36.9881352 71.7577919,36.9881352 C72.7794963,36.9881352 73.8025316,36.5900834 74.5810554,35.7949991 L78.350021,31.947335 C79.1057841,31.1748121 79.5223988,30.1515318 79.5223988,29.064475 C79.5230643,27.9800684 79.1084794,26.9593705 78.3552121,26.1909249 Z" fill="#5E3E5A"></path>
            </g>
        </g>
    </g>
</svg>