<?xml version="1.0" encoding="UTF-8"?>
<svg width="50px" height="58px" viewBox="0 0 50 58" version="1.1" xmlns="http://www.w3.org/2000/svg" xmlns:xlink="http://www.w3.org/1999/xlink">
    <!-- Generator: Sketch 49 (51002) - http://www.bohemiancoding.com/sketch -->
    <title>worldwide</title>
    <desc>Created with Sketch.</desc>
    <defs></defs>
    <g id="ICO" stroke="none" stroke-width="1" fill="none" fill-rule="evenodd">
        <g id="01-main-page-ICO" transform="translate(-130.000000, -2494.000000)" fill-rule="nonzero">
            <g id="worldwide" transform="translate(130.000000, 2494.000000)">
                <g id="Group">
                    <path d="M24,27.0093607 L24,14.2211538 C19.9878,14.9827137 16.772775,20.2653735 16.128125,27.0093607 L24,27.0093607 Z" id="Shape" fill="#5CB0FF"></path>
                    <path d="M24,44.7548077 L24,28.9922419 L16.0147,28.9922419 C16.011575,29.1582855 16,29.3206607 16,29.4879684 C16,37.3840735 19.506525,43.901935 24,44.7548077 Z" id="Shape" fill="#5CB0FF"></path>
                    <path d="M26,44.7548077 C30.493475,43.901935 34,37.3840735 34,29.4879684 C34,29.3206607 33.9884,29.1582855 33.9853,28.9922419 L26,28.9922419 L26,44.7548077 Z" id="Shape" fill="#5CB0FF"></path>
                    <path d="M35.8802,27.0093607 L40.86115,27.0093607 C40.077575,20.820959 35.695925,15.7300214 29.8556,13.8808376 C33.07545,16.3267274 35.3689,21.1519556 35.8802,27.0093607 Z" id="Shape" fill="#5CB0FF"></path>
                    <path d="M26,14.2211538 L26,27.0093607 L33.871875,27.0093607 C33.227225,20.2653735 30.0122,14.9827137 26,14.2211538 Z" id="Shape" fill="#5CB0FF"></path>
                    <path d="M36,29.4879932 C36,35.2656359 34.288025,40.2838504 31.6123,43.4201385 C37.14075,40.9190991 41,35.3997795 41,28.9922667 L35.984625,28.9922667 C35.9875,29.1586077 36,29.3203632 36,29.4879932 Z" id="Shape" fill="#5CB0FF"></path>
                    <path d="M14.1198,27.0093607 C14.6311,21.1519556 16.92455,16.3267274 20.1444,13.8808376 C14.304075,15.7299966 9.922425,20.820959 9.13885,27.0093607 L14.1198,27.0093607 Z" id="Shape" fill="#5CB0FF"></path>
                    <path d="M14,29.4879932 C14,29.3203632 14.0125,29.1586077 14.015375,28.9922667 L9,28.9922667 C9,35.3997299 12.85925,40.9191239 18.387625,43.4201385 C15.711925,40.2839 14,35.2656359 14,29.4879932 Z" id="Shape" fill="#5CB0FF"></path>
                    <path d="M26,11.1963299 L26,11.1461128 L24,11.1461128 L24,11.1963299 C14.54115,11.7155291 7,19.4869094 7,28.9922667 C7,38.8322393 15.0752,46.8384205 25,46.8384205 C34.9248,46.8384205 43,38.8322393 43,28.9922667 C43,19.4869094 35.45885,11.7155291 26,11.1963299 Z M40.86115,27.0093607 L35.8802,27.0093607 C35.3689,21.1519556 33.07545,16.3267274 29.8556,13.8808376 C35.695925,15.7299966 40.077575,20.8209342 40.86115,27.0093607 Z M34,29.4879932 C34,37.3840983 30.493475,43.901935 26,44.7548325 L26,28.9922667 L33.9853,28.9922667 C33.9884,29.1583103 34,29.3206607 34,29.4879932 Z M16.0147,28.9922667 L24,28.9922667 L24,44.7548325 C19.506525,43.9019598 16,37.3840983 16,29.4879932 C16,29.3206607 16.0116,29.1583103 16.0147,28.9922667 Z M24,14.2211538 L24,27.0093607 L16.128125,27.0093607 C16.772775,20.2653735 19.9878,14.9827137 24,14.2211538 Z M26,27.0093607 L26,14.2211538 C30.0122,14.9827137 33.227225,20.2653735 33.871875,27.0093607 L26,27.0093607 Z M20.1444,13.8808376 C16.92455,16.3267274 14.6311,21.1519556 14.1198,27.0093607 L9.13885,27.0093607 C9.922425,20.8209342 14.304075,15.7299966 20.1444,13.8808376 Z M9,28.9922667 L14.015375,28.9922667 C14.0125,29.1586077 14,29.3203632 14,29.4879932 C14,35.2656359 15.711925,40.2839 18.387625,43.4201385 C12.85925,40.9190991 9,35.3997299 9,28.9922667 Z M31.6123,43.4201137 C34.288025,40.2838256 36,35.2656359 36,29.4879932 C36,29.3203632 35.9875,29.1586077 35.984625,28.9922667 L41,28.9922667 C41,35.3997795 37.14075,40.9190991 31.6123,43.4201137 Z" id="Shape" fill="#1C71DA"></path>
                    <path d="M25.1676,4.21015556 L27.707025,1.69243504 C28.09765,1.30514872 28.09765,0.677732479 27.707025,0.29047094 C27.3164,-0.0967905983 26.683575,-0.0968153846 26.292975,0.29047094 L22.050775,4.49638803 C21.66015,4.88367436 21.66015,5.5110906 22.050775,5.89835214 L26.292975,10.104294 C26.488275,10.2979248 26.74415,10.394765 27,10.394765 C27.25585,10.394765 27.511725,10.2979496 27.707025,10.104294 C28.09765,9.71700769 28.09765,9.08959145 27.707025,8.70232991 L25.176325,6.19325983 C37.7777,6.28801795 48,16.4766846 48,28.9922667 C48,29.5402675 48.447275,29.9837197 49,29.9837197 C49.552725,29.9837197 50,29.5402675 50,28.9922667 C50,15.3806581 38.8755,4.30032821 25.1676,4.21015556 Z" id="Shape" fill="#1C71DA"></path>
                    <path d="M23.707025,47.8802145 C23.3164,47.4929282 22.683575,47.4929282 22.292975,47.8802145 C21.902375,48.2675009 21.90235,48.8949171 22.292975,49.2821786 L24.823675,51.7912487 C12.2223,51.6964906 2,41.5078239 2,28.9922667 C2,28.4442658 1.552725,28.0008137 1,28.0008137 C0.447275,28.0008137 0,28.4442658 0,28.9922667 C0,42.6038752 11.1245,53.6841803 24.8324,53.774353 L22.292975,56.2920735 C21.90235,56.6793598 21.90235,57.3067761 22.292975,57.6940376 C22.488275,57.8876684 22.74415,57.9845085 23,57.9845085 C23.25585,57.9845085 23.511725,57.8876932 23.707025,57.6940376 L27.949225,53.4880957 C28.33985,53.1008094 28.33985,52.4733932 27.949225,52.0861316 L23.707025,47.8802145 Z" id="Shape" fill="#1C71DA"></path>
                </g>
                <path d="M40.063,7.13623077 C39.80715,7.13623077 39.551025,7.03941538 39.355975,6.84575983 C38.96535,6.45872137 38.96535,5.83083419 39.355975,5.44379573 L42.891625,1.93836496 C43.28175,1.55107863 43.91555,1.55107863 44.305675,1.93836496 C44.6963,2.32540342 44.6963,2.9532906 44.305675,3.34032906 L40.770025,6.84575983 C40.57495,7.03941538 40.31885,7.13623077 40.063,7.13623077 Z" id="Shape" fill="#FF5D5D"></path>
                <path d="M43.598625,7.13623077 C43.342775,7.13623077 43.0869,7.03941538 42.8916,6.84575983 L39.35595,3.34057692 C38.965325,2.95353846 38.965325,2.32565128 39.35595,1.93861282 C39.746075,1.5513265 40.3794,1.5513265 40.77,1.93861282 L44.30565,5.44379573 C44.696275,5.83083419 44.696275,6.45872137 44.30565,6.84575983 C44.1106,7.03941538 43.8545,7.13623077 43.598625,7.13623077 Z" id="Shape" fill="#FF5D5D"></path>
                <path d="M44.563,52.7430684 C42.633075,52.7430684 41.063,51.1864128 41.063,49.2729829 C41.063,47.359553 42.633075,45.8028974 44.563,45.8028974 C46.492925,45.8028974 48.063,47.359553 48.063,49.2729829 C48.063,51.1864128 46.492925,52.7430684 44.563,52.7430684 Z M44.563,47.7858034 C43.73585,47.7858034 43.063,48.4529026 43.063,49.2729829 C43.063,50.0930632 43.73585,50.7601624 44.563,50.7601624 C45.39015,50.7601624 46.063,50.0930632 46.063,49.2729829 C46.063,48.4529026 45.390125,47.7858034 44.563,47.7858034 Z" id="Shape" fill="#00D40B"></path>
                <path d="M3.8916,18.6933504 C3.63575,18.6933504 3.379875,18.596535 3.184575,18.4028795 L0.35595,15.5986786 C0.16845,15.4127812 0.062975,15.1605556 0.062975,14.8976966 C0.062975,14.6348376 0.16845,14.382612 0.35595,14.1967145 L3.184575,11.3925137 C3.5752,11.0052274 4.208025,11.0052274 4.598625,11.3925137 L7.427,14.1967145 C7.817625,14.583753 7.817625,15.2116402 7.427,15.5986786 L4.598625,18.4028795 C4.403575,18.5965103 4.14745,18.6933504 3.8916,18.6933504 Z M2.4773,14.8976966 L3.8916,16.2999085 L5.30565,14.8976966 L3.8916,13.4954846 L2.4773,14.8976966 Z" id="Shape" fill="#FFC504"></path>
            </g>
        </g>
    </g>
</svg>