<?xml version="1.0" encoding="UTF-8"?>
<svg width="75px" height="17px" viewBox="0 0 75 17" version="1.1" xmlns="http://www.w3.org/2000/svg" xmlns:xlink="http://www.w3.org/1999/xlink">
    <g stroke="none" stroke-width="1" fill="none" fill-rule="evenodd" opacity="0.5">
        <path d="M65.4273218,16.1057559 C65.6844129,16.3651664 66.025098,16.4948717 66.3657832,16.4948717 C66.7017366,16.4948717 67.03769,16.3698546 67.2947811,16.1166949 L74.3340304,9.21418607 C74.5832352,8.96883994 74.7251874,8.63754452 74.7267646,8.29218467 C74.7267646,7.94526211 74.5911215,7.60927855 74.3450711,7.36393242 L67.3767979,0.387976065 C66.8641929,-0.12303149 66.0266753,-0.132407775 65.5093386,0.37859978 C64.9904246,0.886481907 64.9856929,1.71472045 65.4998751,2.22885344 L70.2032229,6.93887414 L1.32015497,6.93887414 C0.589890033,6.93887414 0,7.52332927 0,8.24686596 C0,8.97040265 0.589890033,9.55485777 1.32015497,9.55485777 L70.2331906,9.55485777 L65.4367852,14.2570649 C64.9194485,14.764947 64.9131395,15.5931856 65.4273218,16.1057559" fill="#B9688A"></path>
    </g>
</svg>