<?xml version="1.0" encoding="UTF-8"?>
<svg width="52px" height="54px" viewBox="0 0 52 54" version="1.1" xmlns="http://www.w3.org/2000/svg" xmlns:xlink="http://www.w3.org/1999/xlink">
    <!-- Generator: Sketch 49 (51002) - http://www.bohemiancoding.com/sketch -->
    <title>bot</title>
    <desc>Created with Sketch.</desc>
    <defs></defs>
    <g id="ICO" stroke="none" stroke-width="1" fill="none" fill-rule="evenodd">
        <g id="01-main-page-ICO" transform="translate(-130.000000, -2098.000000)" fill-rule="nonzero">
            <g id="bot" transform="translate(130.000000, 2098.000000)">
                <g id="Group" transform="translate(6.407583, 0.000000)">
                    <path d="M25.8037308,0 L15.9622749,0 C7.26062938,0 0.181581043,7.177725 0.181581043,16 L0.181581043,31 C0.181581043,31.55225 0.622964929,32 1.16736303,32 L4.124709,32 L4.124709,42 C4.124709,48.6167 9.42713175,54 15.9444569,54 L25.8215242,54 C32.3388493,54 37.641272,48.6167 37.641272,42 L37.641272,32 L40.598618,32 C41.1430161,32 41.5844,31.55225 41.5844,31 L41.5844,16 C41.5844246,7.177725 34.5053763,0 25.8037308,0 Z" id="Shape" fill="#1C71DA"></path>
                    <path d="M15.9622749,2 L25.8037308,2 C32.0466389,2 37.3287299,6.2246 39.0312739,12 L2.73473175,12 C4.43727583,6.2246 9.71936682,2 15.9622749,2 Z" id="Shape" fill="#D0E8FF"></path>
                    <path d="M39.4552834,14 C39.5022066,14.3302 39.5392227,14.66285 39.5629308,15 L2.20309953,15 C2.22680758,14.66285 2.26379905,14.3302 2.31074692,14 L39.4552834,14 Z" id="Shape" fill="#D0E8FF"></path>
                    <path d="M35.6697327,42 C35.6697327,47.51415 31.252,52 25.8215488,52 L15.9444815,52 C10.5140057,52 6.09629763,47.51415 6.09629763,42 L6.09629763,32 L6.15278294,32 L6.79469953,43.07325 C6.98433934,46.3413 9.76552607,49 12.9943564,49 L17.9256815,49 C18.4700796,49 18.9114635,48.55225 18.9114635,48 L18.9114635,45 L23.8403735,45 L23.8403735,48 C23.8403735,48.55225 24.2817573,49 24.8261555,49 L28.7716986,49 C32.0005289,49 34.781691,46.3413 34.9713308,43.07325 L35.6132474,32 L35.6697327,32 L35.6697327,42 Z" id="Shape" fill="#5CB0FF"></path>
                    <path d="M21.8687848,34 L21.8687848,32 L33.6384796,32 L33.0035867,42.95605 C32.8741289,45.186025 30.97571,47 28.7716739,47 L25.8119128,47 L25.8119128,44 C25.8119128,43.44775 25.3705289,43 24.8261308,43 L17.9256569,43 C17.3812588,43 16.9398749,43.44775 16.9398749,44 L16.9398749,47 L12.9943564,47 C10.7902957,47 8.89190142,45.186025 8.76241896,42.95605 L8.12752607,32 L19.8972209,32 L19.8972209,34 L21.8687848,34 Z" id="Shape" fill="#D0E8FF"></path>
                    <polygon id="Shape" fill="#D0E8FF" points="39.6128607 30 36.6555147 30 34.6839507 30 21.8687848 30 19.8972209 30 7.08205498 30 5.110491 30 2.15314502 30 2.15314502 17 39.6128607 17"></polygon>
                    <path d="M9.04496872,28 L32.7210616,28 C34.3470351,28 35.6697327,26.6543 35.6697327,25 C35.6697327,23.3457 34.3470104,22 32.7210616,22 L9.04496872,22 C7.41899526,22 6.09629763,23.3457 6.09629763,25 C6.09629763,26.6543 7.41899526,28 9.04496872,28 Z" id="Shape" fill="#1C71DA"></path>
                    <path d="M9.04496872,24 L32.7210616,24 C33.268836,24 33.6981687,24.43945 33.6981687,25 C33.6981687,25.551275 33.2596682,26 32.7210616,26 L9.04496872,26 C8.49719431,26 8.06786161,25.56055 8.06786161,25 C8.06783697,24.448725 8.50633744,24 9.04496872,24 Z" id="Shape" fill="#5CB0FF"></path>
                    <rect id="Rectangle-path" fill="#1C71DA" x="14.9683109" y="37" width="11.8293839" height="2"></rect>
                    <rect id="Rectangle-path" fill="#1C71DA" x="18.9114389" y="40" width="4.92890995" height="2"></rect>
                </g>
                <path d="M47.3175355,40.941775 C47.0652,40.941775 46.812963,40.844125 46.6204398,40.648925 C46.2354919,40.2583 46.2354919,39.62525 46.6204398,39.234625 L50.1056967,35.6991 C50.4907678,35.308725 51.1148171,35.308725 51.4998882,35.6991 C51.884836,36.089725 51.884836,36.722775 51.4998882,37.1134 L48.0146313,40.648925 C47.8221081,40.844125 47.5698711,40.941775 47.3175355,40.941775 Z" id="Shape" fill="#FF5D5D"></path>
                <path d="M50.8027924,40.9419 C50.5504569,40.9419 50.2982199,40.84425 50.1056967,40.64905 L46.6204398,37.1134 C46.2354919,36.722775 46.2354919,36.0896 46.6204398,35.6991 C47.0057573,35.308725 47.6298066,35.308975 48.0146313,35.6991 L51.4998882,39.23475 C51.884836,39.625375 51.884836,40.25855 51.4998882,40.64905 C51.3073649,40.84425 51.0550047,40.9419 50.8027924,40.9419 Z" id="Shape" fill="#FF5D5D"></path>
                <path d="M6.40758294,52.941775 C4.50509763,52.941775 2.95734597,51.3717 2.95734597,49.441775 C2.95734597,47.51185 4.50509763,45.941775 6.40758294,45.941775 C8.31006825,45.941775 9.85781991,47.51185 9.85781991,49.441775 C9.85781991,51.3717 8.31006825,52.941775 6.40758294,52.941775 Z M6.40758294,47.941775 C5.59219336,47.941775 4.92890995,48.614625 4.92890995,49.441775 C4.92890995,50.268925 5.59219336,50.941775 6.40758294,50.941775 C7.22297251,50.941775 7.88625592,50.268925 7.88625592,49.441775 C7.88625592,48.614625 7.22297251,47.941775 6.40758294,47.941775 Z" id="Shape" fill="#00D40B"></path>
                <path d="M3.77406635,12.598275 C3.51258768,12.598275 3.26192796,12.492925 3.07697062,12.305425 L0.288686256,9.476925 C0.103852133,9.2893 0,9.035025 0,8.769775 C0,8.504525 0.103852133,8.25025 0.288809479,8.062625 L3.07709384,5.23425 C3.46204171,4.843875 4.08621422,4.844 4.47116209,5.23425 L7.25932322,8.062625 C7.64427109,8.45325 7.64427109,9.0863 7.25932322,9.4768 L4.47116209,12.3053 C4.28620474,12.492925 4.03554502,12.598275 3.77406635,12.598275 Z M2.37985024,8.769775 L3.77404171,10.184075 L5.16810995,8.769775 L3.77404171,7.3556 L2.37985024,8.769775 Z" id="Shape" fill="#FFC504"></path>
            </g>
        </g>
    </g>
</svg>