<?xml version="1.0" encoding="UTF-8"?>
<svg width="25px" height="25px" viewBox="0 0 25 25" version="1.1" xmlns="http://www.w3.org/2000/svg" xmlns:xlink="http://www.w3.org/1999/xlink">
    <!-- Generator: Sketch 49 (51002) - http://www.bohemiancoding.com/sketch -->
    <title>check</title>
    <desc>Created with Sketch.</desc>
    <defs></defs>
    <g id="ICO" stroke="none" stroke-width="1" fill="none" fill-rule="evenodd">
        <g id="01-main-page-ICO" transform="translate(-175.000000, -1624.000000)" fill="#50E3C2" fill-rule="nonzero">
            <g id="Group-48" transform="translate(111.000000, 1496.000000)">
                <g id="Group-37">
                    <path d="M76.5,128 C69.5970982,128 64,133.597098 64,140.5 C64,147.402902 69.5970982,153 76.5,153 C83.4029018,153 89,147.402902 89,140.5 C89,133.597098 83.4029018,128 76.5,128 Z M82.9118304,136.320312 L75.1495536,146.28125 C75.0881696,146.342634 74.9877232,146.476562 74.8649554,146.476562 C74.7366071,146.476562 74.6529018,146.387277 74.5803571,146.314732 C74.5078125,146.242188 70.1774554,142.079241 70.1774554,142.079241 L70.09375,141.995536 C70.0602679,141.945312 70.0323661,141.883929 70.0323661,141.816964 C70.0323661,141.75 70.0602679,141.688616 70.09375,141.638393 C70.1160714,141.616071 70.1328125,141.59933 70.1551339,141.571429 C70.5848214,141.11942 71.4553571,140.204241 71.5111607,140.148438 C71.5837054,140.075893 71.6450893,139.981027 71.7790179,139.981027 C71.9185268,139.981027 72.0078125,140.098214 72.0747768,140.165179 C72.1417411,140.232143 74.5859375,142.581473 74.5859375,142.581473 L80.796875,134.601562 C80.8526786,134.55692 80.9196429,134.523438 80.9921875,134.523438 C81.0647321,134.523438 81.1316964,134.551339 81.1875,134.595982 L82.8950893,135.940848 C82.9397321,135.996652 82.9676339,136.063616 82.9676339,136.136161 C82.9732143,136.208705 82.9453125,136.270089 82.9118304,136.320312 Z" id="check"></path>
                </g>
            </g>
        </g>
    </g>
</svg>