<svg xmlns="http://www.w3.org/2000/svg" width="90" height="91" viewBox="0 0 90 91">
    <g fill="none" fill-rule="nonzero">
        <g fill="#B9688A" opacity=".2">
            <path d="M8.036 3.288H6.429V1.681a1.607 1.607 0 0 0-3.215 0v1.607H1.607a1.607 1.607 0 0 0 0 3.215h1.607V8.11a1.607 1.607 0 0 0 3.215 0V6.503h1.607a1.607 1.607 0 0 0 0-3.215zM24.107 3.288H22.5V1.681a1.607 1.607 0 0 0-3.214 0v1.607h-1.607a1.607 1.607 0 0 0 0 3.215h1.607V8.11a1.607 1.607 0 0 0 3.214 0V6.503h1.607a1.607 1.607 0 0 0 0-3.215zM40.179 3.288H38.57V1.681a1.607 1.607 0 0 0-3.214 0v1.607H33.75a1.607 1.607 0 0 0 0 3.215h1.607V8.11a1.607 1.607 0 0 0 3.214 0V6.503h1.608a1.607 1.607 0 0 0 0-3.215zM56.25 3.288h-1.607V1.681a1.607 1.607 0 0 0-3.214 0v1.607H49.82a1.607 1.607 0 0 0 0 3.215h1.608V8.11a1.607 1.607 0 0 0 3.214 0V6.503h1.607a1.607 1.607 0 0 0 0-3.215zM72.321 3.288h-1.607V1.681a1.607 1.607 0 0 0-3.214 0v1.607h-1.607a1.607 1.607 0 0 0 0 3.215H67.5V8.11a1.607 1.607 0 0 0 3.214 0V6.503h1.607a1.607 1.607 0 0 0 0-3.215zM81.964 6.503h1.607V8.11a1.607 1.607 0 0 0 3.215 0V6.503h1.607a1.607 1.607 0 0 0 0-3.215h-1.607V1.681a1.607 1.607 0 0 0-3.215 0v1.607h-1.607a1.607 1.607 0 0 0 0 3.215zM8.036 19.36H6.429v-1.607a1.607 1.607 0 0 0-3.215 0v1.607H1.607a1.607 1.607 0 0 0 0 3.214h1.607v1.607a1.607 1.607 0 0 0 3.215 0v-1.607h1.607a1.607 1.607 0 0 0 0-3.214zM24.107 19.36H22.5v-1.607a1.607 1.607 0 0 0-3.214 0v1.607h-1.607a1.607 1.607 0 0 0 0 3.214h1.607v1.607a1.607 1.607 0 0 0 3.214 0v-1.607h1.607a1.607 1.607 0 0 0 0-3.214zM40.179 19.36H38.57v-1.607a1.607 1.607 0 0 0-3.214 0v1.607H33.75a1.607 1.607 0 0 0 0 3.214h1.607v1.607a1.607 1.607 0 0 0 3.214 0v-1.607h1.608a1.607 1.607 0 0 0 0-3.214zM56.25 19.36h-1.607v-1.607a1.607 1.607 0 0 0-3.214 0v1.607H49.82a1.607 1.607 0 0 0 0 3.214h1.608v1.607a1.607 1.607 0 0 0 3.214 0v-1.607h1.607a1.607 1.607 0 0 0 0-3.214zM72.321 19.36h-1.607v-1.607a1.607 1.607 0 0 0-3.214 0v1.607h-1.607a1.607 1.607 0 0 0 0 3.214H67.5v1.607a1.607 1.607 0 0 0 3.214 0v-1.607h1.607a1.607 1.607 0 0 0 0-3.214zM88.393 19.36h-1.607v-1.607a1.607 1.607 0 0 0-3.215 0v1.607h-1.607a1.607 1.607 0 0 0 0 3.214h1.607v1.607a1.607 1.607 0 0 0 3.215 0v-1.607h1.607a1.607 1.607 0 0 0 0-3.214zM8.036 35.431H6.429v-1.607a1.607 1.607 0 0 0-3.215 0v1.607H1.607a1.607 1.607 0 0 0 0 3.215h1.607v1.607a1.607 1.607 0 0 0 3.215 0v-1.607h1.607a1.607 1.607 0 0 0 0-3.215zM24.107 35.431H22.5v-1.607a1.607 1.607 0 0 0-3.214 0v1.607h-1.607a1.607 1.607 0 0 0 0 3.215h1.607v1.607a1.607 1.607 0 0 0 3.214 0v-1.607h1.607a1.607 1.607 0 0 0 0-3.215zM40.179 35.431H38.57v-1.607a1.607 1.607 0 0 0-3.214 0v1.607H33.75a1.607 1.607 0 0 0 0 3.215h1.607v1.607a1.607 1.607 0 0 0 3.214 0v-1.607h1.608a1.607 1.607 0 0 0 0-3.215zM56.25 35.431h-1.607v-1.607a1.607 1.607 0 0 0-3.214 0v1.607H49.82a1.607 1.607 0 0 0 0 3.215h1.608v1.607a1.607 1.607 0 0 0 3.214 0v-1.607h1.607a1.607 1.607 0 0 0 0-3.215zM72.321 35.431h-1.607v-1.607a1.607 1.607 0 0 0-3.214 0v1.607h-1.607a1.607 1.607 0 0 0 0 3.215H67.5v1.607a1.607 1.607 0 0 0 3.214 0v-1.607h1.607a1.607 1.607 0 0 0 0-3.215zM88.393 35.431h-1.607v-1.607a1.607 1.607 0 0 0-3.215 0v1.607h-1.607a1.607 1.607 0 0 0 0 3.215h1.607v1.607a1.607 1.607 0 0 0 3.215 0v-1.607h1.607a1.607 1.607 0 0 0 0-3.215zM8.036 51.503H6.429v-1.607a1.607 1.607 0 0 0-3.215 0v1.607H1.607a1.607 1.607 0 0 0 0 3.214h1.607v1.607a1.607 1.607 0 0 0 3.215 0v-1.607h1.607a1.607 1.607 0 0 0 0-3.214zM24.107 51.503H22.5v-1.607a1.607 1.607 0 0 0-3.214 0v1.607h-1.607a1.607 1.607 0 0 0 0 3.214h1.607v1.607a1.607 1.607 0 0 0 3.214 0v-1.607h1.607a1.607 1.607 0 0 0 0-3.214zM40.179 51.503H38.57v-1.607a1.607 1.607 0 0 0-3.214 0v1.607H33.75a1.607 1.607 0 0 0 0 3.214h1.607v1.607a1.607 1.607 0 0 0 3.214 0v-1.607h1.608a1.607 1.607 0 0 0 0-3.214zM56.25 51.503h-1.607v-1.607a1.607 1.607 0 0 0-3.214 0v1.607H49.82a1.607 1.607 0 0 0 0 3.214h1.608v1.607a1.607 1.607 0 0 0 3.214 0v-1.607h1.607a1.607 1.607 0 0 0 0-3.214zM72.321 51.503h-1.607v-1.607a1.607 1.607 0 0 0-3.214 0v1.607h-1.607a1.607 1.607 0 0 0 0 3.214H67.5v1.607a1.607 1.607 0 0 0 3.214 0v-1.607h1.607a1.607 1.607 0 0 0 0-3.214zM88.393 51.503h-1.607v-1.607a1.607 1.607 0 0 0-3.215 0v1.607h-1.607a1.607 1.607 0 0 0 0 3.214h1.607v1.607a1.607 1.607 0 0 0 3.215 0v-1.607h1.607a1.607 1.607 0 0 0 0-3.214zM8.036 67.574H6.429v-1.607a1.607 1.607 0 0 0-3.215 0v1.607H1.607a1.607 1.607 0 0 0 0 3.214h1.607v1.608a1.607 1.607 0 0 0 3.215 0v-1.608h1.607a1.607 1.607 0 0 0 0-3.214zM24.107 67.574H22.5v-1.607a1.607 1.607 0 0 0-3.214 0v1.607h-1.607a1.607 1.607 0 0 0 0 3.214h1.607v1.608a1.607 1.607 0 0 0 3.214 0v-1.608h1.607a1.607 1.607 0 0 0 0-3.214zM40.179 67.574H38.57v-1.607a1.607 1.607 0 0 0-3.214 0v1.607H33.75a1.607 1.607 0 0 0 0 3.214h1.607v1.608a1.607 1.607 0 0 0 3.214 0v-1.608h1.608a1.607 1.607 0 0 0 0-3.214zM56.25 67.574h-1.607v-1.607a1.607 1.607 0 0 0-3.214 0v1.607H49.82a1.607 1.607 0 0 0 0 3.214h1.608v1.608a1.607 1.607 0 0 0 3.214 0v-1.608h1.607a1.607 1.607 0 0 0 0-3.214zM72.321 67.574h-1.607v-1.607a1.607 1.607 0 0 0-3.214 0v1.607h-1.607a1.607 1.607 0 0 0 0 3.214H67.5v1.608a1.607 1.607 0 0 0 3.214 0v-1.608h1.607a1.607 1.607 0 0 0 0-3.214zM88.393 67.574h-1.607v-1.607a1.607 1.607 0 0 0-3.215 0v1.607h-1.607a1.607 1.607 0 0 0 0 3.214h1.607v1.608a1.607 1.607 0 0 0 3.215 0v-1.608h1.607a1.607 1.607 0 0 0 0-3.214zM8.036 83.646H6.429v-1.608a1.607 1.607 0 0 0-3.215 0v1.608H1.607a1.607 1.607 0 0 0 0 3.214h1.607v1.607a1.607 1.607 0 0 0 3.215 0V86.86h1.607a1.607 1.607 0 0 0 0-3.214zM24.107 83.646H22.5v-1.608a1.607 1.607 0 0 0-3.214 0v1.608h-1.607a1.607 1.607 0 0 0 0 3.214h1.607v1.607a1.607 1.607 0 0 0 3.214 0V86.86h1.607a1.607 1.607 0 0 0 0-3.214zM40.179 83.646H38.57v-1.608a1.607 1.607 0 0 0-3.214 0v1.608H33.75a1.607 1.607 0 0 0 0 3.214h1.607v1.607a1.607 1.607 0 0 0 3.214 0V86.86h1.608a1.607 1.607 0 0 0 0-3.214zM56.25 83.646h-1.607v-1.608a1.607 1.607 0 0 0-3.214 0v1.608H49.82a1.607 1.607 0 0 0 0 3.214h1.608v1.607a1.607 1.607 0 0 0 3.214 0V86.86h1.607a1.607 1.607 0 0 0 0-3.214zM72.321 83.646h-1.607v-1.608a1.607 1.607 0 0 0-3.214 0v1.608h-1.607a1.607 1.607 0 0 0 0 3.214H67.5v1.607a1.607 1.607 0 0 0 3.214 0V86.86h1.607a1.607 1.607 0 0 0 0-3.214zM88.393 83.646h-1.607v-1.608a1.607 1.607 0 0 0-3.215 0v1.608h-1.607a1.607 1.607 0 0 0 0 3.214h1.607v1.607a1.607 1.607 0 0 0 3.215 0V86.86h1.607a1.607 1.607 0 0 0 0-3.214z"/>
        </g>
        <path fill="#ED5175" d="M45 3.214c-22.155 0-40.179 18.024-40.179 40.179S22.845 83.57 45 83.57s40.179-18.023 40.179-40.178C85.179 21.238 67.155 3.214 45 3.214zm15.915 25.602l-16.071 33.75a1.61 1.61 0 0 1-2.421.59L28.06 52.283A1.607 1.607 0 1 1 30 49.72l12.79 9.683 15.223-31.969a1.606 1.606 0 1 1 2.902 1.381z"/>
        <path fill="#643458" d="M45 0C21.073 0 1.607 19.466 1.607 43.393S21.073 86.786 45 86.786 88.393 67.32 88.393 43.393 68.927 0 45 0zm0 83.571c-22.155 0-40.179-18.023-40.179-40.178C4.821 21.238 22.845 3.214 45 3.214s40.179 18.024 40.179 40.179S67.155 83.57 45 83.57z"/>
        <path fill="#FFF" d="M60.155 26.674a1.61 1.61 0 0 0-2.142.76L42.79 59.404 30 49.72a1.607 1.607 0 1 0-1.94 2.563l14.363 10.873a1.606 1.606 0 0 0 2.42-.59l16.072-33.75a1.606 1.606 0 0 0-.76-2.142z"/>
    </g>
</svg>
