<?xml version="1.0" encoding="UTF-8"?>
<svg width="62px" height="62px" viewBox="0 0 62 62" version="1.1" xmlns="http://www.w3.org/2000/svg" xmlns:xlink="http://www.w3.org/1999/xlink">
    <!-- Generator: Sketch 49 (51002) - http://www.bohemiancoding.com/sketch -->
    <title>db</title>
    <desc>Created with Sketch.</desc>
    <defs></defs>
    <g id="ICO" stroke="none" stroke-width="1" fill="none" fill-rule="evenodd">
        <g id="01-main-page-ICO" transform="translate(-1073.000000, -2290.000000)">
            <g id="db" transform="translate(1074.000000, 2291.000000)">
                <g id="Decor-Copy-14" stroke-linecap="round" stroke-linejoin="round" transform="translate(2.068966, 2.068966)" stroke="#FAE7F5" stroke-width="2">
                    <g id="Group">
                        <path d="M2.06896552,0 L2.06896552,4.13793103" id="Path-4"></path>
                        <path d="M0,2.06896552 L4.13793103,2.06896552 L0,2.06896552 Z" id="Path-5"></path>
                        <path d="M12.4137931,0 L12.4137931,4.13793103" id="Path-4-Copy"></path>
                        <path d="M10.3448276,2.06896552 L14.4827586,2.06896552 L10.3448276,2.06896552 Z" id="Path-5-Copy"></path>
                        <path d="M22.7586207,0 L22.7586207,4.13793103" id="Path-4-Copy-2"></path>
                        <path d="M20.6896552,2.06896552 L24.8275862,2.06896552 L20.6896552,2.06896552 Z" id="Path-5-Copy-2"></path>
                        <path d="M33.1034483,0 L33.1034483,4.13793103" id="Path-4-Copy-3"></path>
                        <path d="M31.0344828,2.06896552 L35.1724138,2.06896552 L31.0344828,2.06896552 Z" id="Path-5-Copy-3"></path>
                        <path d="M43.4482759,0 L43.4482759,4.13793103" id="Path-4-Copy-4"></path>
                        <path d="M41.3793103,2.06896552 L45.5172414,2.06896552 L41.3793103,2.06896552 Z" id="Path-5-Copy-4"></path>
                        <path d="M53.7931034,0 L53.7931034,4.13793103" id="Path-4-Copy-5"></path>
                        <path d="M51.7241379,2.06896552 L55.862069,2.06896552 L51.7241379,2.06896552 Z" id="Path-5-Copy-5"></path>
                        <path d="M2.06896552,10.3448276 L2.06896552,14.4827586" id="Path-4-Copy-11"></path>
                        <path d="M0,12.4137931 L4.13793103,12.4137931 L0,12.4137931 Z" id="Path-5-Copy-11"></path>
                        <path d="M12.4137931,10.3448276 L12.4137931,14.4827586" id="Path-4-Copy-10"></path>
                        <path d="M10.3448276,12.4137931 L14.4827586,12.4137931 L10.3448276,12.4137931 Z" id="Path-5-Copy-10"></path>
                        <path d="M22.7586207,10.3448276 L22.7586207,14.4827586" id="Path-4-Copy-9"></path>
                        <path d="M20.6896552,12.4137931 L24.8275862,12.4137931 L20.6896552,12.4137931 Z" id="Path-5-Copy-9"></path>
                        <path d="M33.1034483,10.3448276 L33.1034483,14.4827586" id="Path-4-Copy-8"></path>
                        <path d="M31.0344828,12.4137931 L35.1724138,12.4137931 L31.0344828,12.4137931 Z" id="Path-5-Copy-8"></path>
                        <path d="M43.4482759,10.3448276 L43.4482759,14.4827586" id="Path-4-Copy-7"></path>
                        <path d="M41.3793103,12.4137931 L45.5172414,12.4137931 L41.3793103,12.4137931 Z" id="Path-5-Copy-7"></path>
                        <path d="M53.7931034,10.3448276 L53.7931034,14.4827586" id="Path-4-Copy-6"></path>
                        <path d="M51.7241379,12.4137931 L55.862069,12.4137931 L51.7241379,12.4137931 Z" id="Path-5-Copy-6"></path>
                        <path d="M2.06896552,20.6896552 L2.06896552,24.8275862" id="Path-4-Copy-17"></path>
                        <path d="M0,22.7586207 L4.13793103,22.7586207 L0,22.7586207 Z" id="Path-5-Copy-17"></path>
                        <path d="M12.4137931,20.6896552 L12.4137931,24.8275862" id="Path-4-Copy-16"></path>
                        <path d="M10.3448276,22.7586207 L14.4827586,22.7586207 L10.3448276,22.7586207 Z" id="Path-5-Copy-16"></path>
                        <path d="M22.7586207,20.6896552 L22.7586207,24.8275862" id="Path-4-Copy-15"></path>
                        <path d="M20.6896552,22.7586207 L24.8275862,22.7586207 L20.6896552,22.7586207 Z" id="Path-5-Copy-15"></path>
                        <path d="M33.1034483,20.6896552 L33.1034483,24.8275862" id="Path-4-Copy-14"></path>
                        <path d="M31.0344828,22.7586207 L35.1724138,22.7586207 L31.0344828,22.7586207 Z" id="Path-5-Copy-14"></path>
                        <path d="M43.4482759,20.6896552 L43.4482759,24.8275862" id="Path-4-Copy-13"></path>
                        <path d="M41.3793103,22.7586207 L45.5172414,22.7586207 L41.3793103,22.7586207 Z" id="Path-5-Copy-13"></path>
                        <path d="M53.7931034,20.6896552 L53.7931034,24.8275862" id="Path-4-Copy-12"></path>
                        <path d="M51.7241379,22.7586207 L55.862069,22.7586207 L51.7241379,22.7586207 Z" id="Path-5-Copy-12"></path>
                        <path d="M2.06896552,31.0344828 L2.06896552,35.1724138" id="Path-4-Copy-23"></path>
                        <path d="M0,33.1034483 L4.13793103,33.1034483 L0,33.1034483 Z" id="Path-5-Copy-23"></path>
                        <path d="M12.4137931,31.0344828 L12.4137931,35.1724138" id="Path-4-Copy-22"></path>
                        <path d="M10.3448276,33.1034483 L14.4827586,33.1034483 L10.3448276,33.1034483 Z" id="Path-5-Copy-22"></path>
                        <path d="M22.7586207,31.0344828 L22.7586207,35.1724138" id="Path-4-Copy-21"></path>
                        <path d="M20.6896552,33.1034483 L24.8275862,33.1034483 L20.6896552,33.1034483 Z" id="Path-5-Copy-21"></path>
                        <path d="M33.1034483,31.0344828 L33.1034483,35.1724138" id="Path-4-Copy-20"></path>
                        <path d="M31.0344828,33.1034483 L35.1724138,33.1034483 L31.0344828,33.1034483 Z" id="Path-5-Copy-20"></path>
                        <path d="M43.4482759,31.0344828 L43.4482759,35.1724138" id="Path-4-Copy-19"></path>
                        <path d="M41.3793103,33.1034483 L45.5172414,33.1034483 L41.3793103,33.1034483 Z" id="Path-5-Copy-19"></path>
                        <path d="M53.7931034,31.0344828 L53.7931034,35.1724138" id="Path-4-Copy-18"></path>
                        <path d="M51.7241379,33.1034483 L55.862069,33.1034483 L51.7241379,33.1034483 Z" id="Path-5-Copy-18"></path>
                        <path d="M2.06896552,41.3793103 L2.06896552,45.5172414" id="Path-4-Copy-29"></path>
                        <path d="M0,43.4482759 L4.13793103,43.4482759 L0,43.4482759 Z" id="Path-5-Copy-29"></path>
                        <path d="M12.4137931,41.3793103 L12.4137931,45.5172414" id="Path-4-Copy-28"></path>
                        <path d="M10.3448276,43.4482759 L14.4827586,43.4482759 L10.3448276,43.4482759 Z" id="Path-5-Copy-28"></path>
                        <path d="M22.7586207,41.3793103 L22.7586207,45.5172414" id="Path-4-Copy-27"></path>
                        <path d="M20.6896552,43.4482759 L24.8275862,43.4482759 L20.6896552,43.4482759 Z" id="Path-5-Copy-27"></path>
                        <path d="M33.1034483,41.3793103 L33.1034483,45.5172414" id="Path-4-Copy-26"></path>
                        <path d="M31.0344828,43.4482759 L35.1724138,43.4482759 L31.0344828,43.4482759 Z" id="Path-5-Copy-26"></path>
                        <path d="M43.4482759,41.3793103 L43.4482759,45.5172414" id="Path-4-Copy-25"></path>
                        <path d="M41.3793103,43.4482759 L45.5172414,43.4482759 L41.3793103,43.4482759 Z" id="Path-5-Copy-25"></path>
                        <path d="M53.7931034,41.3793103 L53.7931034,45.5172414" id="Path-4-Copy-24"></path>
                        <path d="M51.7241379,43.4482759 L55.862069,43.4482759 L51.7241379,43.4482759 Z" id="Path-5-Copy-24"></path>
                        <path d="M2.06896552,51.7241379 L2.06896552,55.862069" id="Path-4-Copy-35"></path>
                        <path d="M0,53.7931034 L4.13793103,53.7931034 L0,53.7931034 Z" id="Path-5-Copy-35"></path>
                        <path d="M12.4137931,51.7241379 L12.4137931,55.862069" id="Path-4-Copy-34"></path>
                        <path d="M10.3448276,53.7931034 L14.4827586,53.7931034 L10.3448276,53.7931034 Z" id="Path-5-Copy-34"></path>
                        <path d="M22.7586207,51.7241379 L22.7586207,55.862069" id="Path-4-Copy-33"></path>
                        <path d="M20.6896552,53.7931034 L24.8275862,53.7931034 L20.6896552,53.7931034 Z" id="Path-5-Copy-33"></path>
                        <path d="M33.1034483,51.7241379 L33.1034483,55.862069" id="Path-4-Copy-32"></path>
                        <path d="M31.0344828,53.7931034 L35.1724138,53.7931034 L31.0344828,53.7931034 Z" id="Path-5-Copy-32"></path>
                        <path d="M43.4482759,51.7241379 L43.4482759,55.862069" id="Path-4-Copy-31"></path>
                        <path d="M41.3793103,53.7931034 L45.5172414,53.7931034 L41.3793103,53.7931034 Z" id="Path-5-Copy-31"></path>
                        <path d="M53.7931034,51.7241379 L53.7931034,55.862069" id="Path-4-Copy-30"></path>
                        <path d="M51.7241379,53.7931034 L55.862069,53.7931034 L51.7241379,53.7931034 Z" id="Path-5-Copy-30"></path>
                    </g>
                </g>
                <g id="DB" fill-rule="nonzero">
                    <rect id="Rectangle-48-Copy-2" stroke="#643458" stroke-width="2" fill="#FDCA8D" stroke-linecap="round" stroke-linejoin="round" x="13.4482759" y="13.4482759" width="33.1034483" height="33.1034483" rx="3"></rect>
                    <path d="M25.622069,24.7287861 C28.4731034,24.7287861 30.5306897,26.6787861 30.5306897,29.4356826 C30.5306897,32.1791309 28.4596552,34.1425792 25.5548276,34.1425792 L21.7086207,34.1425792 L21.7086207,24.7287861 L25.622069,24.7287861 Z M25.6624138,32.5556826 C27.3972414,32.5556826 28.6882759,31.2780964 28.6882759,29.4491309 C28.6882759,27.6067171 27.3568966,26.3156826 25.5951724,26.3156826 L23.5106897,26.3156826 L23.5106897,32.5556826 L25.6624138,32.5556826 Z M36.2865517,24.7287861 C38.2903448,24.7287861 39.5275862,25.6298206 39.5275862,27.0822343 C39.5275862,28.1177516 38.9089655,28.9111999 37.8868966,29.1667171 C39.1241379,29.3953378 39.8906897,30.2963723 39.8906897,31.5470619 C39.8906897,33.160855 38.5593103,34.1425792 36.4075862,34.1425792 L32.1041379,34.1425792 L32.1041379,24.7287861 L36.2865517,24.7287861 Z M36.1924138,28.574993 C37.1203448,28.574993 37.6851724,28.1446481 37.6851724,27.404993 C37.6851724,26.6922343 37.1203448,26.2887861 36.1924138,26.2887861 L33.9062069,26.2887861 L33.9062069,28.574993 L36.1924138,28.574993 Z M36.1924138,32.5825792 C37.3355172,32.5825792 38.0213793,32.1253378 38.0213793,31.3184412 C38.0213793,30.5518895 37.3355172,30.0811999 36.1924138,30.0811999 L33.9062069,30.0811999 L33.9062069,32.5825792 L36.1924138,32.5825792 Z" id="Shape" fill="#643458"></path>
                    <polyline id="Path-13-Copy-11" stroke="#643458" stroke-width="2" fill="#FDCA8D" stroke-linecap="round" stroke-linejoin="round" points="33.1039552 13.4323523 33.1039552 9.31857544 37.2461462 3.11314975"></polyline>
                    <circle id="Oval-25-Copy-11" stroke="#643458" stroke-width="2" fill="#ED5175" stroke-linecap="round" stroke-linejoin="round" cx="37.2413793" cy="3.10344828" r="3.10344828"></circle>
                    <polyline id="Path-13-Copy-10" stroke="#643458" stroke-width="2" fill="#FDCA8D" stroke-linecap="round" stroke-linejoin="round" transform="translate(24.824949, 8.272751) scale(-1, 1) translate(-24.824949, -8.272751) " points="22.7538538 13.4323523 22.7538538 9.31857544 26.8960448 3.11314975"></polyline>
                    <circle id="Oval-25-Copy-10" stroke="#643458" stroke-width="2" fill="#ED5175" stroke-linecap="round" stroke-linejoin="round" transform="translate(22.758621, 3.103448) scale(-1, 1) translate(-22.758621, -3.103448) " cx="22.7586207" cy="3.10344828" r="3.10344828"></circle>
                    <polyline id="Path-13-Copy-9" stroke="#643458" stroke-width="2" fill="#FDCA8D" stroke-linecap="round" stroke-linejoin="round" transform="translate(35.175051, 51.727248) scale(-1, 1) rotate(-180.000000) translate(-35.175051, -51.727248) " points="33.1039552 56.8868495 33.1039552 52.7730727 37.2461462 46.567647"></polyline>
                    <circle id="Oval-25-Copy-9" stroke="#643458" stroke-width="2" fill="#ED5175" stroke-linecap="round" stroke-linejoin="round" transform="translate(37.241379, 56.896552) scale(-1, 1) rotate(-180.000000) translate(-37.241379, -56.896552) " cx="37.2413793" cy="56.8965517" r="3.10344828"></circle>
                    <polyline id="Path-13-Copy-8" stroke="#643458" stroke-width="2" fill="#FDCA8D" stroke-linecap="round" stroke-linejoin="round" transform="translate(24.824949, 51.727248) rotate(180.000000) translate(-24.824949, -51.727248) " points="22.7538538 56.8868495 22.7538538 52.7730727 26.8960448 46.567647"></polyline>
                    <circle id="Oval-25-Copy-8" stroke="#643458" stroke-width="2" fill="#ED5175" stroke-linecap="round" stroke-linejoin="round" transform="translate(22.758621, 56.896552) rotate(180.000000) translate(-22.758621, -56.896552) " cx="22.7586207" cy="56.8965517" r="3.10344828"></circle>
                    <g id="Group-2-Copy-3" stroke-linecap="round" stroke-linejoin="round" transform="translate(7.000000, 29.844828) rotate(-90.000000) translate(-7.000000, -29.844828) translate(-3.500000, 22.844828)" fill="#FDCA8D" stroke="#643458" stroke-width="2">
                        <polyline id="Path-13" points="13.4487828 13.4323523 13.4487828 9.31857544 17.5909738 3.11314975"></polyline>
                        <circle id="Oval-25" cx="17.5862069" cy="3.10344828" r="3.10344828"></circle>
                        <polyline id="Path-13-Copy" transform="translate(5.169777, 8.272751) scale(-1, 1) translate(-5.169777, -8.272751) " points="3.09868137 13.4323523 3.09868137 9.31857544 7.2408724 3.11314975"></polyline>
                        <circle id="Oval-25-Copy" transform="translate(3.103448, 3.103448) scale(-1, 1) translate(-3.103448, -3.103448) " cx="3.10344828" cy="3.10344828" r="3.10344828"></circle>
                    </g>
                    <g id="Group-Copy-3" stroke-linecap="round" stroke-linejoin="round" transform="translate(53.000000, 29.844828) scale(-1, 1) rotate(-90.000000) translate(-53.000000, -29.844828) translate(42.500000, 22.844828)" fill="#FDCA8D" stroke="#643458" stroke-width="2">
                        <polyline id="Path-13-Copy-3" points="13.4487828 13.4323523 13.4487828 9.31857544 17.5909738 3.11314975"></polyline>
                        <circle id="Oval-25-Copy-3" cx="17.5862069" cy="3.10344828" r="3.10344828"></circle>
                        <polyline id="Path-13-Copy-2" transform="translate(5.169777, 8.272751) scale(-1, 1) translate(-5.169777, -8.272751) " points="3.09868137 13.4323523 3.09868137 9.31857544 7.2408724 3.11314975"></polyline>
                        <circle id="Oval-25-Copy-2" transform="translate(3.103448, 3.103448) scale(-1, 1) translate(-3.103448, -3.103448) " cx="3.10344828" cy="3.10344828" r="3.10344828"></circle>
                    </g>
                </g>
            </g>
        </g>
    </g>
</svg>