<?xml version="1.0" encoding="UTF-8"?>
<svg width="134px" height="18px" viewBox="0 0 134 18" version="1.1" xmlns="http://www.w3.org/2000/svg" xmlns:xlink="http://www.w3.org/1999/xlink">
    <g stroke="none" stroke-width="1" fill="none" fill-rule="evenodd" opacity="0.5">
        <path d="M129.248749,10.0276544 L124.41925,14.8636565 C123.898172,15.3859897 123.891818,16.2377947 124.409718,16.7649494 C124.668668,17.0317412 125.011817,17.165137 125.354965,17.165137 C125.693348,17.165137 126.030142,17.0365627 126.290681,16.7761997 L133.379241,9.6772893 C133.901907,9.15495608 133.906673,8.30315112 133.390362,7.77438917 L126.37329,0.599941378 C125.856979,0.0743937908 125.014994,0.0647507158 124.492328,0.590298303 C123.969662,1.11263153 123.964896,1.96443649 124.482796,2.49319843 L129.220153,7.33723644 L1.45559498,7.33723644 C0.720049592,7.33723644 0.125894134,7.93832145 0.125894134,8.6824454 C0.125894134,9.42656935 0.720049592,10.0276544 1.45559498,10.0276544 L129.248749,10.0276544 Z" fill="#B9688A"></path>
    </g>
</svg>