<?xml version="1.0" encoding="UTF-8"?>
<svg xmlns="http://www.w3.org/2000/svg" xmlns:xlink="http://www.w3.org/1999/xlink" width="39" height="30" viewBox="0 0 39 30">
    <defs>
        <path id="frefesfre-34234-0" d="M3.25 0v5.217H0V9.13h4.55c0-1.8 1.455-3.26 3.25-3.26s3.25 1.46 3.25 3.26h15.6c0-1.8 1.455-3.26 3.25-3.26s3.25 1.46 3.25 3.26h4.55V5.217h-1.346c.03-.212.046-.43.046-.652C36.4 2.05 34.364 0 31.851 0H3.25z"/>
        <path id="bgitrubuhgj-78943" d="M0 3.26c0 1.802 1.455 3.262 3.25 3.262S6.5 5.062 6.5 3.26C6.5 1.46 5.045 0 3.25 0A3.255 3.255 0 0 0 0 3.26z"/>
        <path id="nvtghygbyu-333-0" d="M0 3.26c0 1.802 1.455 3.262 3.25 3.262S6.5 5.062 6.5 3.26C6.5 1.46 5.045 0 3.25 0A3.256 3.256 0 0 0 0 3.26z"/>
        <path id="ewrdwfre-23123-03" d="M0 0v7.174h21.45L18.2 0z"/>
    </defs>
    <g fill="none" fill-rule="evenodd">
        <g transform="translate(.65 16.957)">
            <mask id="nvghui" fill="#fff">
                <use xlink:href="#frefesfre-34234-0"/>
            </mask>
            <path fill="#FCC24C" d="M-3.25-3.26h44.2V12.39h-44.2z" mask="url(#nvghui)"/>
        </g>
        <path fill="#FCC24C" d="M34.396 25.435H37.7v-2.609h-.696a.65.65 0 0 1-.644-.745c.027-.184.04-.372.04-.56 0-2.157-1.748-3.912-3.899-3.912H4.55v4.565a.65.65 0 0 1-.65.652H1.3v2.609h3.304a3.91 3.91 0 0 1 3.846-3.261 3.91 3.91 0 0 1 3.846 3.26h14.408a3.91 3.91 0 0 1 3.846-3.26 3.91 3.91 0 0 1 3.846 3.26m3.954 1.305H33.8a.65.65 0 0 1-.65-.652 2.607 2.607 0 0 0-2.6-2.609c-1.434 0-2.6 1.17-2.6 2.609a.65.65 0 0 1-.65.652H11.7a.65.65 0 0 1-.65-.652 2.607 2.607 0 0 0-2.6-2.609c-1.434 0-2.6 1.17-2.6 2.609a.65.65 0 0 1-.65.652H.65a.65.65 0 0 1-.65-.652v-3.913c0-.36.29-.652.65-.652h2.6v-4.565c0-.36.29-.653.65-.653h28.601c2.867 0 5.199 2.341 5.199 5.218h.65c.36 0 .65.292.65.652v3.913a.65.65 0 0 1-.65.652"/>
        <g transform="translate(5.2 22.826)">
            <mask id="nhuiy" fill="#fff">
                <use xlink:href="#bgitrubuhgj-78943"/>
            </mask>
            <path fill="#618287" d="M-3.25-3.26h13V9.782h-13z" mask="url(#nhuiy)"/>
        </g>
        <path fill="#618287" d="M8.45 23.478c-1.434 0-2.6 1.17-2.6 2.609a2.607 2.607 0 0 0 2.6 2.609c1.434 0 2.6-1.17 2.6-2.609a2.607 2.607 0 0 0-2.6-2.609m0 6.522a3.91 3.91 0 0 1-3.9-3.913 3.91 3.91 0 0 1 3.9-3.913 3.91 3.91 0 0 1 3.9 3.913A3.91 3.91 0 0 1 8.45 30"/>
        <g transform="translate(27.3 22.826)">
            <mask id="ferfhui" fill="#fff">
                <use xlink:href="#nvtghygbyu-333-0"/>
            </mask>
            <path fill="#618287" d="M-3.25-3.26h13V9.782h-13z" mask="url(#ferfhui)"/>
        </g>
        <path fill="#618287" d="M30.55 23.478c-1.434 0-2.6 1.17-2.6 2.609a2.607 2.607 0 0 0 2.6 2.609c1.434 0 2.6-1.17 2.6-2.609a2.607 2.607 0 0 0-2.6-2.609m0 6.522a3.91 3.91 0 0 1-3.9-3.913 3.91 3.91 0 0 1 3.9-3.913 3.91 3.91 0 0 1 3.9 3.913A3.91 3.91 0 0 1 30.55 30"/>
        <path fill="#4F676D" d="M30.55 27.391a1.303 1.303 0 0 1 0-2.608 1.303 1.303 0 0 1 0 2.608M8.45 27.391a1.303 1.303 0 0 1 0-2.608 1.303 1.303 0 0 1 0 2.608"/>
        <g>
            <g transform="translate(5.85 9.783)">
                <mask id="nyutgr" fill="#fff">
                    <use xlink:href="#ewrdwfre-23123-03"/>
                </mask>
                <path fill="#7BE5E4" d="M-3.25-3.26H24.7v13.695H-3.25z" mask="url(#nyutgr)"/>
            </g>
        </g>
        <g>
            <path fill="#3BABB7" d="M6.5 16.304h19.79l-2.659-5.87H6.5v5.87zm20.813 1.305H5.85a.65.65 0 0 1-.65-.652V9.783c0-.36.29-.653.65-.653h18.2c.255 0 .486.15.592.383l3.2 7.065a.655.655 0 0 1-.529 1.03z"/>
            <path fill="#3BABB7" d="M11.7 17.638h-1.3V9.13h1.3z"/>
            <path fill="#F9A131" d="M32.443 13.28a.654.654 0 0 1-.608-.885l1.862-4.893-4.075-.402a.652.652 0 0 1-.552-.859l1.756-5.187a.65.65 0 1 1 1.231.42l-1.493 4.408 4.107.405a.653.653 0 0 1 .544.881l-2.164 5.691c-.1.26-.347.42-.608.42"/>
        </g>
    </g>
</svg>
